objid	container	server_template_crc	cell_index	px	py	pz	qw	qx	qy	qz	scripts	objvars
i	i	h	i	f	f	f	f	f	f	f	s	p
568328	0	object/static/installation/mockup_power_generator_wind_style_1.iff	0	511.926	33.9781	681.817	-3.20E-08	0	1	0		$|
568332	0	object/static/installation/mockup_power_generator_wind_style_1.iff	0	438.387	34.122	681.636	1	0	0	0		$|
568333	0	object/tangible/furniture/all/frn_all_toolchest_lg_s01.iff	0	437.118	34.0851	679.375	0.800481	0	0.599358	0		$|
568334	0	object/static/particle/pt_poi_broken_electronics.iff	0	438.124	34.6082	680.352	1	0	0	0		$|
568336	0	object/static/structure/tatooine/antenna_tatt_style_1.iff	0	435.867	33.8296	678.986	1	0	0	0		$|
568337	0	object/static/structure/tatooine/wall_pristine_tatooine_tall_style_01.iff	0	369.361	11.8871	744.02	1	0	0	0		$|
568338	0	object/static/structure/tatooine/pillar_pristine_tall_style_01.iff	0	369.598	11.8838	736.104	1	0	0	0		$|
568347	0	object/static/structure/tatooine/pillar_pristine_small_style_01.iff	0	474.581	18.9199	819.67	1	0	0	0		$|
568348	0	object/static/structure/tatooine/pillar_pristine_small_style_01.iff	0	472.195	18.9985	819.612	1	0	0	0		$|
568349	0	object/static/structure/tatooine/pillar_pristine_small_style_01.iff	0	473.445	18.968	819.619	1	0	0	0		$|
568354	0	object/static/structure/tatooine/pillar_pristine_small_style_01.iff	0	481.607	18.549	819.582	1	0	0	0		$|
568355	0	object/static/structure/tatooine/pillar_pristine_small_style_01.iff	0	480.357	18.549	819.575	1	0	0	0		$|
568356	0	object/static/structure/tatooine/pillar_pristine_small_style_01.iff	0	482.743	18.549	819.633	1	0	0	0		$|
568593	0	object/static/structure/tatooine/debris_tatt_drum_dented_1.iff	0	369.088	12.0156	1108.72	1	0	0	0		$|
568594	0	object/static/structure/tatooine/debris_tatt_drum_dented_1.iff	0	367.832	12.0132	1108.7	1	0	0	0		$|
568595	0	object/static/structure/tatooine/debris_tatt_crate_metal_1.iff	0	368.735	12.0036	1107.77	1	0	0	0		$|
568596	0	object/static/structure/tatooine/debris_tatt_crate_1.iff	0	369.677	11.9975	1107.74	-0.280393	0	0.959885	0		$|
568597	0	object/static/structure/general/prp_engine.iff	0	364.347	12.0398	1108.49	1	0	0	0		$|
568598	0	object/static/structure/general/prp_engine.iff	0	363.489	12.0398	1107.79	1	0	0	0		$|
568599	0	object/static/structure/tatooine/jawa/tent_jawa_01_small.iff	0	366.891	12.0072	1107.7	0.707107	0	0.707107	0		$|
1738423	0	object/tangible/crafting/station/public_clothing_station.iff	0	487.687	11.9746	923.035	-0.444662	0	0.895699	0		$|
1738424	0	object/tangible/crafting/station/public_food_station.iff	0	493.732	11.9764	928.271	0.320063	0	0.947396	0		$|
1738425	0	object/tangible/crafting/station/public_structure_station.iff	0	509.301	12.0407	941.616	0.315322	0	0.948985	0		$|
1738426	0	object/tangible/crafting/station/public_weapon_station.iff	0	472.957	12.0771	983.257	0.947651	0	-0.319309	0		$|
2745453	0	object/building/tatooine/filler_building_tatt_style01_01.iff	0	355.311	12.0311	1083.1	1	0	0	0		$|
2745455	0	object/building/tatooine/filler_building_tatt_style01_02.iff	0	473.804	11.7759	1009.26	0.707109	0	-0.707105	0		$|
2745457	0	object/building/tatooine/filler_building_tatt_style01_03.iff	0	513.931	11.9467	1069.01	0.707097	0.00353552	0.707099	0.00353552		$|
2745459	0	object/building/tatooine/filler_building_tatt_style01_04.iff	0	381.334	11.9719	852.232	1	0	0	0		$|
2745461	0	object/building/tatooine/filler_building_tatt_style01_05.iff	0	489.367	11.919	1068.14	0.707108	0	-0.707106	0		$|
2745463	0	object/building/tatooine/filler_building_tatt_style01_06.iff	0	550.555	11.7718	1095.72	-0.382684	0	0.923879	0		$|
2745465	0	object/building/tatooine/filler_building_tatt_style01_07.iff	0	393.674	12	1109.87	0.382683	0	0.92388	0		$|
2745467	0	object/building/tatooine/filler_building_tatt_style01_08.iff	0	450.091	11.8895	1064.32	0.707108	0	-0.707105	0		$|
2745469	0	object/building/tatooine/filler_building_tatt_style01_09.iff	0	474.693	22.6029	877.141	0.754832	0	-0.655918	0		$|
2745471	0	object/building/tatooine/filler_building_tatt_style01_10.iff	0	310.273	12.0085	833.439	1	0	0	0		$|
2745475	0	object/building/tatooine/filler_building_block_64x16_style_01.iff	0	494.323	11.7138	1039.48	1	0	0	0		$|
2745479	0	object/building/tatooine/filler_building_block_64x16_style_02.iff	0	319.282	11.7824	1025.75	-0.707107	0	0.707107	0		$|
2745483	0	object/building/tatooine/filler_building_block_64x32_style_01.iff	0	306.768	11.7422	1086.29	0.331317	0	0.94352	0		$|
2745486	0	object/building/tatooine/filler_building_block_64x32_style_02.iff	0	356.565	11.8885	987.859	-0.707107	0	0.707107	0		$|
2745489	0	object/building/tatooine/filler_building_slave_quarters_style_01.iff	0	235.348	11.9426	851.256	1.25E-06	0	1	0		$|
2745501	0	object/building/tatooine/filler_building_tatt_style01_07.iff	0	445.326	12	1109.87	-0.382683	0	0.92388	0		$|
2745504	0	object/static/structure/tatooine/beam_tatooine_overhead_style_02.iff	0	424	15.173	1110	1	0	0	0		$|
2745507	0	object/static/structure/tatooine/bridge_tatooine_small_style_03.iff	0	423	0.262236	1274	1	0	0	0		$|
2745508	0	object/static/structure/tatooine/bridge_tatooine_small_style_03.iff	0	422.992	0.262236	1242.17	1	0	0	0		$|
2745509	0	object/static/structure/tatooine/bridge_tatooine_small_style_03.iff	0	423	0.262236	1306	1	0	0	0		$|
2745510	0	object/static/structure/tatooine/bridge_tatooine_small_style_01.iff	0	423	0.262236	1326	1	0	0	0		$|
2745511	0	object/static/structure/tatooine/bridge_tatooine_small_style_01.iff	0	417	0.262236	1326	1	0	0	0		$|
2745512	0	object/static/structure/tatooine/bridge_tatooine_small_style_03.iff	0	417	0.262236	1306	1	0	0	0		$|
2745513	0	object/static/structure/tatooine/bridge_tatooine_small_style_03.iff	0	417	0.262236	1274	1	0	0	0		$|
2745514	0	object/static/structure/tatooine/bridge_tatooine_small_style_03.iff	0	416.992	0.262236	1242.17	1	0	0	0		$|
2745515	0	object/static/structure/tatooine/beam_tatooine_overhead_style_02.iff	0	415	15.173	1110	1	0	0	0		$|
2745517	0	object/static/structure/tatooine/pillar_pristine_tall_style_01.iff	0	420	10.999	1110	1	0	0	0		$|
2745518	0	object/static/structure/tatooine/pillar_pristine_tall_style_01.iff	0	420	10.9511	1111	1	0	0	0		$|
2745519	0	object/static/structure/tatooine/pillar_pristine_tall_style_01.iff	0	429	10.7858	1110	1	0	0	0		$|
2745520	0	object/static/structure/tatooine/pillar_pristine_tall_style_01.iff	0	429	10.7391	1111	1	0	0	0		$|
2745521	0	object/static/structure/tatooine/pillar_pristine_tall_style_01.iff	0	411	10.7323	1110	1	0	0	0		$|
2745522	0	object/static/structure/tatooine/pillar_pristine_tall_style_01.iff	0	411	10.6991	1111	1	0	0	0		$|
2745540	0	object/static/structure/tatooine/wall_pristine_tatooine_tall_style_01.iff	0	370.422	10.7398	1111.94	0.707107	0	0.707106	0		$|
2745541	0	object/static/structure/tatooine/wall_pristine_tatooine_tall_style_01.iff	0	354.25	10.7005	1111.87	0.707107	0	0.707106	0		$|
2745542	0	object/static/structure/tatooine/pillar_pristine_tall_style_01.iff	0	362.879	10.8205	1112.67	1	0	0	0		$|
2745543	0	object/static/structure/tatooine/pillar_pristine_tall_style_01.iff	0	346.282	10.9678	1112.59	1	0	0	0		$|
2745544	0	object/static/structure/tatooine/pillar_pristine_tall_style_01.iff	0	492.934	11.1111	1109.49	-3.20E-08	0	1	0		$|
2745545	0	object/static/structure/tatooine/wall_pristine_tatooine_tall_style_01.iff	0	468.794	10.7372	1110.14	-0.707105	0	0.707108	0		$|
2745546	0	object/static/structure/tatooine/wall_pristine_tatooine_tall_style_01.iff	0	484.966	10.9884	1110.2	-0.707105	0	0.707108	0		$|
2745547	0	object/static/structure/tatooine/pillar_pristine_tall_style_01.iff	0	476.338	11.0112	1109.41	-3.20E-08	0	1	0		$|
2745548	0	object/building/tatooine/filler_building_tatt_style01_08.iff	0	390.173	11.8508	1063.2	0.707105	0	0.707108	0		$|
2745551	0	object/static/structure/tatooine/wall_pristine_tatooine_tall_style_01.iff	0	337.525	10.6824	1110.15	0.777323	0	0.629102	0		$|
2745557	0	object/static/structure/tatooine/wall_pristine_tatooine_tall_style_01.iff	0	278.715	11.888	1056.12	-0.324041	0	0.946043	0		$|
2745558	0	object/static/structure/tatooine/wall_pristine_tatooine_tall_style_01.iff	0	273.982	12.1364	1024.64	1.84E-06	0	1	0		$|
2745559	0	object/static/structure/tatooine/wall_pristine_tatooine_tall_style_01.iff	0	273.917	11.7013	1040.81	1.84E-06	0	1	0		$|
2745560	0	object/static/structure/tatooine/pillar_pristine_tall_style_01.iff	0	274.714	11.9023	1032.18	0.707107	0	0.707106	0		$|
2745561	0	object/static/structure/tatooine/pillar_pristine_tall_style_01.iff	0	274.631	11.8724	1048.78	0.707107	0	0.707106	0		$|
2745562	0	object/building/tatooine/filler_building_tatt_style01_07.iff	0	273.729	11.9932	1001.87	0.707107	0	0.707106	0		$|
2745564	0	object/building/tatooine/filler_building_tatt_style01_07.iff	0	273.768	11.7646	954.204	0.707108	0	0.707105	0		$|
2745575	0	object/static/structure/tatooine/wall_archway_tatooine_wide_style_01.iff	0	271.774	11.9761	977.959	1	0	0	0		$|
2745615	0	object/building/tatooine/cloning_facility_tatooine_small.iff	0	212.289	17.06	1051.46	-3.20E-08	0	1	0	structure.municipal.cloning_facility:structure.municipal.cloning_base	healing.canhealshock|0|1|$|
2745634	0	object/static/structure/tatooine/wall_cleft_tatooine_large_style_01.iff	0	221.247	17.2084	1054.23	0.560839	0	0.827925	0		$|
2745635	0	object/static/structure/tatooine/wall_damaged_tatooine_large_style_01.iff	0	225.205	17.05	1048.58	0.99875	0	0.0499792	0		$|
2745636	0	object/static/structure/tatooine/pillar_ruined_large_style_01.iff	0	226.075	17.2993	1053.05	0.980067	0	0.198669	0		$|
2745638	0	object/static/structure/tatooine/wall_ruined_tatooine_large_style_02.iff	0	207.014	16.944	1040.83	0.707111	0	0.707103	0		$|
2745639	0	object/static/structure/tatooine/wall_ruined_tatooine_large_style_02.iff	0	212.246	16.8907	1031.87	-0.242556	0	0.970137	0		$|
2745640	0	object/static/structure/tatooine/wall_gate_tatooine_style_02.iff	0	219.645	17.0888	1032.68	0.904582	0	0.426299	0		$|
2745642	0	object/static/structure/tatooine/wall_pristine_tatooine_large_style_01.iff	0	223.854	16.9455	1039.76	0.995491	0	0.0948572	0		$|
2745644	0	object/static/structure/tatooine/pillar_damaged_large_style_01.iff	0	216.138	17.0137	1030.74	0.939304	0	-0.343085	0		$|
2745645	0	object/static/structure/tatooine/pillar_damaged_large_style_01.iff	0	224.83	17.1408	1043.57	0.636844	0	0.770992	0		$|
2745646	0	object/static/structure/tatooine/pillar_pristine_large_style_01.iff	0	223.491	17.1582	1035.53	0.903599	0	0.42838	0		$|
2745648	0	object/static/structure/tatooine/debris_tatt_pipe_dual_unconnected.iff	0	218.987	17.3292	1053.82	0.292941	0	0.956131	0		$|
2745649	0	object/static/installation/mockup_mining_liquid_harvester_style_1.iff	0	284.852	11.8657	1042.86	-0.707107	0	0.707107	0		$|
2745651	0	object/static/installation/mockup_mining_liquid_moisture_harvester.iff	0	221.58	17.2062	1050.35	1	0	0	0		$|
2745652	0	object/static/structure/tatooine/debris_tatt_drum_dented_1.iff	0	222.907	17.2541	1043.08	1	0	0	0		$|
2745653	0	object/static/structure/tatooine/debris_tatt_drum_storage_1.iff	0	222.969	17.2194	1041.92	1	0	0	0		$|
2745655	0	object/static/structure/tatooine/debris_tatt_crate_1.iff	0	222.568	17.2206	1039.73	1	0	0	0		$|
2745656	0	object/static/structure/tatooine/pillar_pristine_tall_style_01.iff	0	508.972	10.772	1106.64	-0.0948571	0	0.995491	0		$|
2745657	0	object/static/structure/tatooine/wall_pristine_tatooine_tall_style_01.iff	0	517.596	10.7098	1105.8	0.770992	0	-0.636844	0		$|
2745658	0	object/static/structure/tatooine/wall_pristine_tatooine_tall_style_01.iff	0	501.703	10.7847	1108.79	0.770992	0	-0.636844	0		$|
2745659	0	object/static/structure/tatooine/pillar_pristine_tall_style_01.iff	0	525.286	10.5799	1103.59	-0.0948571	0	0.995491	0		$|
2745660	0	object/static/structure/tatooine/wall_pristine_tatooine_tall_style_01.iff	0	533.916	10.2227	1101.35	0.81942	0	-0.573193	0		$|
2745664	0	object/static/installation/mockup_power_generator_photo_bio_style_1.iff	0	354.289	11.2798	1106.67	-3.20E-08	0	1	0		$|
2745665	0	object/static/structure/tatooine/pillar_pristine_small_style_01.iff	0	429	11	1114	1	0	0	0		$|
2745666	0	object/static/structure/tatooine/pillar_pristine_small_style_01.iff	0	429	10.75	1117	1	0	0	0		$|
2745667	0	object/static/structure/tatooine/pillar_pristine_small_style_01.iff	0	429	10.5	1120	1	0	0	0		$|
2745668	0	object/static/structure/tatooine/pillar_pristine_small_style_01.iff	0	411	11	1114	1	0	0	0		$|
2745669	0	object/static/structure/tatooine/pillar_pristine_small_style_01.iff	0	411	10.75	1117	1	0	0	0		$|
2745670	0	object/static/structure/tatooine/pillar_pristine_small_style_01.iff	0	411	10.5	1120	1	0	0	0		$|
2745671	0	object/static/structure/tatooine/pillar_pristine_small_style_01.iff	0	429	10.25	1123	1	0	0	0		$|
2745672	0	object/static/structure/tatooine/pillar_pristine_small_style_01.iff	0	411	10.25	1123	1	0	0	0		$|
2745674	0	object/static/structure/tatooine/wall_pristine_tatooine_large_style_02.iff	0	458.518	12.013	1048.95	0.948383	0	-0.317127	0		$|
2745675	0	object/static/structure/tatooine/wall_gate_tatooine_wide_style_01.iff	0	417.944	11.9484	1056.31	0.707108	0	0.707106	0		$|
2745676	0	object/static/structure/tatooine/pillar_pristine_large_style_01.iff	0	409.954	11.9221	1056.79	1	0	0	0		$|
2745677	0	object/static/structure/tatooine/pillar_pristine_large_style_01.iff	0	426.945	12.0373	1056.81	1	0	0	0		$|
2745679	0	object/static/structure/tatooine/wall_pristine_tatooine_large_style_02.iff	0	400.987	11.9909	1056.01	0.707108	0	0.707106	0		$|
2745680	0	object/static/structure/tatooine/wall_pristine_tatooine_large_style_02.iff	0	434.868	11.9992	1056.09	0.707108	0	0.707106	0		$|
2745681	0	object/static/structure/tatooine/wall_pristine_tatooine_large_style_01.iff	0	375.923	11.8499	1061.68	0.707107	0	0.707106	0		$|
2745682	0	object/static/structure/tatooine/wall_pristine_tatooine_large_style_02.iff	0	333.742	11.9943	1053.65	0.707107	0	0.707106	0		$|
2745683	0	object/building/tatooine/bank_tatooine.iff	0	421.905	12	954.327	1	0	0	0		$|
2745684	0	object/building/tatooine/filler_building_tatt_style01_06.iff	0	260.159	12.079	872.572	0.707107	0	0.707107	0		$|
2745686	0	object/static/structure/tatooine/pillar_pristine_tall_style_01.iff	0	272.15	11.9382	922.926	-0.707105	0	0.707108	0		$|
2745687	0	object/static/structure/tatooine/pillar_pristine_tall_style_01.iff	0	272.233	12.029	906.331	-0.707105	0	0.707108	0		$|
2745688	0	object/static/structure/tatooine/wall_pristine_tatooine_tall_style_01.iff	0	264.297	11.9255	905.637	0.707107	0	0.707106	0		$|
2745689	0	object/static/structure/tatooine/wall_pristine_tatooine_tall_style_01.iff	0	272.882	12.0201	930.47	1	0	0	0		$|
2745690	0	object/static/structure/tatooine/wall_pristine_tatooine_tall_style_01.iff	0	272.948	11.9755	914.298	1	0	0	0		$|
2745691	0	object/static/structure/tatooine/wall_gate_tatooine_style_01.iff	0	256.466	11.856	893.041	1	0	0	0		$|
2745692	0	object/static/structure/tatooine/wall_pristine_tatooine_tall_style_01.iff	0	215.03	11.992	857.783	0.916042	0	-0.401083	0		$|
2745693	0	object/building/tatooine/filler_building_slave_quarters_style_01.iff	0	209.049	11.9458	876.014	-0.707106	0	0.707107	0		$|
2745694	0	object/building/tatooine/filler_building_tatt_style01_06.iff	0	230.364	12.0233	907.572	0.157046	0	0.987591	0		$|
2745696	0	object/static/structure/tatooine/wall_pristine_tatooine_tall_style_01.iff	0	216.879	12.0799	897.233	0.92388	0	0.382683	0		$|
2745697	0	object/static/structure/tatooine/pillar_pristine_tall_style_01.iff	0	255.739	11.9609	906.299	-0.707105	0	0.707108	0		$|
2745698	0	object/static/structure/tatooine/wall_pristine_tatooine_tall_style_01.iff	0	247.802	11.9248	905.605	0.707107	0	0.707107	0		$|
2745699	0	object/static/structure/tatooine/wall_pristine_tatooine_large_style_01.iff	0	256.464	11.8443	901.854	1	0	0	0		$|
2745700	0	object/static/structure/tatooine/pillar_pristine_large_style_01.iff	0	256.714	12.1207	897.906	1	0	0	0		$|
2745701	0	object/static/structure/tatooine/wall_pristine_tatooine_large_style_01.iff	0	256.428	11.974	884.541	1	0	0	0		$|
2745702	0	object/static/structure/tatooine/pillar_pristine_large_style_01.iff	0	256.699	12.0165	889.051	1	0	0	0		$|
2745703	0	object/static/structure/tatooine/pillar_pristine_tall_style_01.iff	0	266.978	12.1362	855.018	-0.707105	0	0.707108	0		$|
2745704	0	object/static/structure/tatooine/wall_pristine_tatooine_tall_style_01.iff	0	259.041	12.1403	854.324	0.707107	0	0.707107	0		$|
2745705	0	object/static/structure/tatooine/wall_pristine_tatooine_large_style_01.iff	0	261.225	11.9809	858.796	1	0	0	0		$|
2745706	0	object/static/structure/tatooine/wall_pristine_tatooine_tall_style_01.iff	0	274.828	12.0776	850.8	0.527282	0	0.849691	0		$|
2745707	0	object/static/structure/tatooine/pillar_pristine_tall_style_01.iff	0	282.247	11.9275	847.895	0.84969	0	-0.527283	0		$|
2745708	0	object/static/structure/tatooine/wall_pristine_tatooine_tall_style_01.iff	0	289.55	11.9256	842.559	0.484156	0	0.874982	0		$|
2745709	0	object/static/structure/tatooine/pillar_pristine_tall_style_01.iff	0	296.642	12.0203	838.928	0.874981	0	-0.484157	0		$|
2745712	0	object/building/tatooine/filler_building_tatt_style01_06.iff	0	360.245	12.1721	724.686	0.994206	0	0.107492	0		$|
2745731	0	object/building/tatooine/filler_building_tatt_style01_02.iff	0	360.027	11.8004	925.29	0.707107	0	-0.707106	0		$|
2745733	0	object/building/tatooine/filler_building_tatt_style01_05.iff	0	360.061	11.8189	797.407	0.707112	0	-0.707101	0		$|
2745735	0	object/static/structure/tatooine/wall_pristine_tatooine_large_style_02.iff	0	367.885	11.9171	828.217	1	0	0	0		$|
2745736	0	object/static/structure/tatooine/wall_pristine_tatooine_large_style_01.iff	0	367.895	12.1433	815.327	1	0	0	0		$|
2745738	0	object/static/structure/tatooine/pillar_pristine_large_style_01.iff	0	368.114	12.0571	820.291	1	0	0	0		$|
2745744	0	object/static/structure/tatooine/pillar_pristine_tall_style_01.iff	0	320.334	12.0106	787.84	-0.382682	0	0.92388	0		$|
2745745	0	object/static/structure/tatooine/pillar_pristine_tall_style_01.iff	0	315.335	12.0742	803.732	-0.593497	0	0.804836	0		$|
2745746	0	object/static/structure/tatooine/wall_pristine_tatooine_tall_style_01.iff	0	313.806	12.1487	811.156	0.988771	0	-0.14944	0		$|
2745747	0	object/static/structure/tatooine/wall_pristine_tatooine_tall_style_01.iff	0	318.648	12.0264	795.726	0.988771	0	-0.14944	0		$|
2745748	0	object/static/structure/tatooine/wall_pristine_tatooine_tall_style_01.iff	0	333.309	11.8742	775.908	0.923879	0	-0.382685	0		$|
2745749	0	object/static/structure/tatooine/pillar_pristine_tall_style_01.iff	0	338.126	12.0612	770.056	-0.382682	0	0.92388	0		$|
2745754	0	object/static/structure/corellia/corl_imprv_wall_4x16_s03.iff	0	347	11.9311	769	1	0	0	0		$|
2745755	0	object/static/structure/corellia/corl_imprv_gate_sm_s03.iff	0	355	11.8595	766	0.707107	0	0.707107	0		$|
2745756	0	object/static/structure/corellia/corl_imprv_column_s03.iff	0	355.002	11.996	781.373	0.707108	0	0.707106	0		$|
2745757	0	object/static/structure/tatooine/wall_pristine_tatooine_tall_style_01.iff	0	339.083	11.9922	761.722	1	0	0	0		$|
2745758	0	object/static/structure/tatooine/pillar_pristine_tall_style_01.iff	0	339.348	12.0231	753.77	1	0	0	0		$|
2745761	0	object/static/structure/tatooine/wall_pristine_tatooine_tall_style_01.iff	0	339.067	11.9022	744.837	1	0	0	0		$|
2745762	0	object/static/structure/tatooine/pillar_pristine_tall_style_01.iff	0	339.332	12.1937	736.885	1	0	0	0		$|
2745765	0	object/static/structure/tatooine/wall_pristine_tatooine_tall_style_01.iff	0	346.403	11.8821	732.681	0.851111	0	-0.524986	0		$|
2745766	0	object/static/structure/tatooine/pillar_pristine_tall_style_01.iff	0	359.263	11.9287	753.08	-0.585421	0	0.81073	0		$|
2745768	0	object/static/structure/tatooine/wall_gate_tatooine_style_03.iff	0	324.227	12.0336	785.031	0.92388	0	-0.382683	0		$|
2745769	0	object/static/structure/tatooine/pillar_pristine_tall_style_01.iff	0	327.158	12.0143	782.467	0.92388	0	-0.382683	0		$|
2745772	0	object/static/structure/corellia/corl_imprv_wall_4x16_s03.iff	0	347	11.9092	762	1	0	0	0		$|
2745773	0	object/static/structure/corellia/corl_imprv_gate_sm_s03.iff	0	355	12.0941	758	0.707107	0	0.707107	0		$|
2745774	0	object/static/structure/corellia/corl_imprv_wall_4x16_s03.iff	0	347	11.8144	754	1	0	0	0		$|
2745775	0	object/static/structure/corellia/corl_imprv_gate_sm_s03.iff	0	355	12.0866	750	0.707107	0	0.707107	0		$|
2745776	0	object/static/structure/corellia/corl_imprv_wall_4x16_s03.iff	0	347	11.838	746	1	0	0	0		$|
2745777	0	object/static/structure/corellia/corl_imprv_gate_sm_s03.iff	0	355	11.9822	742	0.707107	0	0.707107	0		$|
2745778	0	object/static/structure/corellia/corl_imprv_wall_4x16_s03.iff	0	347	12.086	738	1	0	0	0		$|
2745781	0	object/static/installation/mockup_mining_liquid_moisture_harvester.iff	0	351.538	12.1284	732.457	0.10502	0	0.99447	0		$|
2745786	0	object/static/installation/mockup_mining_liquid_moisture_harvester.iff	0	366.979	12.209	736.681	0.246085	0	0.969248	0		$|
2745787	0	object/static/structure/corellia/corl_imprv_gate_sm_s03.iff	0	355.007	11.9286	776.667	-0.707107	0	0.707107	0		$|
2745788	0	object/static/structure/corellia/corl_imprv_column_s03.iff	0	355	12.0531	782.657	0.707107	0	0.707106	0		$|
2745789	0	object/static/structure/corellia/corl_imprv_column_s03.iff	0	354.995	12.0616	770.684	0.707107	0	0.707107	0		$|
2745790	0	object/static/structure/corellia/corl_imprv_column_s03.iff	0	354.982	12.0653	771.962	0.707107	0	0.707107	0		$|
2745797	0	object/building/tatooine/filler_building_tatt_style01_03.iff	0	356.625	12.0209	1055.46	6.01E-07	0	1	0		$|
2745815	0	object/building/tatooine/filler_building_tatt_style01_09.iff	0	360.348	11.9636	899.858	0.382683	0	0.92388	0		$|
2745817	0	object/building/tatooine/filler_building_tatt_style01_08.iff	0	319.769	11.9409	981.85	0.382682	0	0.92388	0		$|
2745819	0	object/static/structure/tatooine/wall_pristine_tatooine_large_style_01.iff	0	360.137	12.0693	911.484	1	0	0	0		$|
2745820	0	object/static/structure/tatooine/wall_pristine_tatooine_large_style_02.iff	0	365.51	12.0016	875.332	0.982004	0	-0.188859	0		$|
2745821	0	object/static/structure/tatooine/wall_pristine_tatooine_large_style_01.iff	0	361.491	12.0171	887.404	0.995953	0	-0.0898786	0		$|
2745822	0	object/static/structure/tatooine/pillar_pristine_large_style_01.iff	0	362.418	12.0693	883.714	0.982004	0	-0.188859	0		$|
2745824	0	object/static/structure/tatooine/wall_pristine_tatooine_large_style_02.iff	0	322.595	12.003	962.946	0.986794	0	-0.161982	0		$|
2745825	0	object/static/structure/tatooine/wall_gate_tatooine_wide_style_01.iff	0	329.989	12.1332	948.045	0.950796	0	-0.309816	0		$|
2745826	0	object/static/structure/tatooine/wall_pristine_tatooine_large_style_02.iff	0	342.795	12.0333	938.007	0.84314	0	-0.537694	0		$|
2745827	0	object/static/structure/tatooine/pillar_pristine_large_style_01.iff	0	325.348	11.8173	955.558	0.985585	0	-0.169182	0		$|
2745828	0	object/static/structure/tatooine/pillar_pristine_large_style_01.iff	0	335.717	11.9339	941.565	0.975897	0	0.21823	0		$|
2745832	0	object/static/structure/tatooine/wall_pristine_tatooine_large_style_01.iff	0	371.717	11.9648	903.4	0.674582	0	0.738199	0		$|
2745835	0	object/static/structure/tatooine/wall_gate_tatooine_style_01.iff	0	463.011	22.8004	865.755	0.87978	0	0.475381	0		$|
2745836	0	object/static/structure/tatooine/wall_pristine_tatooine_large_style_01.iff	0	456.443	21.615	861.433	0.87978	0	0.475381	0		$|
2745837	0	object/static/structure/tatooine/wall_pristine_tatooine_large_style_01.iff	0	469.852	22.9971	870.221	0.879781	0	0.47538	0		$|
2745838	0	object/static/structure/tatooine/pillar_pristine_large_style_01.iff	0	459.636	22.3434	864.439	0.958244	0	-0.285952	0		$|
2745839	0	object/static/structure/tatooine/pillar_pristine_large_style_01.iff	0	466.602	22.9537	869.002	0.958244	0	-0.285952	0		$|
2745859	0	object/building/tatooine/filler_building_tatt_style01_07.iff	0	641.698	11.8822	980.657	-0.707107	0	0.707107	0		$|
2745861	0	object/building/tatooine/filler_building_tatt_style01_07.iff	0	641.737	11.9529	932.991	-0.707105	0	0.707108	0		$|
2745863	0	object/static/structure/tatooine/wall_archway_tatooine_wide_style_01.iff	0	643.692	11.8316	956.9	-3.20E-08	0	1	0		$|
2745879	0	object/static/structure/tatooine/wall_pristine_tatooine_tall_style_01.iff	0	563.878	10.6381	1084.02	0.92388	0	-0.382683	0		$|
2745880	0	object/static/structure/tatooine/pillar_pristine_tall_style_01.iff	0	569.526	11.1039	1078.76	0.92388	0	-0.382683	0		$|
2745890	0	object/static/structure/tatooine/pillar_pristine_tall_style_01.iff	0	613.798	10.5609	1053.97	-0.448423	0	0.893822	0		$|
2745891	0	object/static/structure/tatooine/wall_pristine_tatooine_tall_style_01.iff	0	619.597	10.9327	1047.53	0.94911	0	-0.314946	0		$|
2745893	0	object/static/structure/tatooine/pillar_pristine_tall_style_01.iff	0	623.787	10.7939	1040.72	-0.448423	0	0.893822	0		$|
2745894	0	object/static/structure/tatooine/pillar_pristine_tall_style_01.iff	0	631.094	11.2091	1026.16	-0.531186	0	0.847255	0		$|
2745895	0	object/static/structure/tatooine/wall_pristine_tatooine_tall_style_01.iff	0	635.572	11.2835	1018.74	0.974705	0	-0.223495	0		$|
2745896	0	object/static/structure/tatooine/wall_pristine_tatooine_tall_style_01.iff	0	628.468	11.1297	1033.27	0.974705	0	-0.223495	0		$|
2745897	0	object/static/structure/tatooine/pillar_pristine_tall_style_01.iff	0	638.401	11.5539	1011.26	-0.531186	0	0.847255	0		$|
2745898	0	object/static/structure/tatooine/wall_pristine_tatooine_tall_style_01.iff	0	641.762	11.3538	1003	0.989448	0	-0.144885	0		$|
2745899	0	object/building/tatooine/filler_building_block_64x32_style_01.iff	0	567.557	11.8427	878.581	0.981491	0	-0.191509	0		$|
2745902	0	object/static/structure/tatooine/wall_pristine_tatooine_tall_style_01.iff	0	515.744	12.071	855.049	0.863968	0	0.503547	0		$|
2745903	0	object/static/structure/tatooine/pillar_pristine_tall_style_01.iff	0	508.933	12.0903	850.904	0.863968	0	0.503547	0		$|
2745904	0	object/static/structure/tatooine/wall_pristine_tatooine_tall_style_01.iff	0	501.033	12.0328	846.775	0.863968	0	0.503547	0		$|
2745905	0	object/static/structure/tatooine/pillar_pristine_tall_style_01.iff	0	523.528	11.8725	859.16	0.863968	0	0.503547	0		$|
2745906	0	object/static/structure/tatooine/wall_pristine_tatooine_tall_style_01.iff	0	530.339	11.7741	863.305	0.863968	0	0.503547	0		$|
2745907	0	object/static/structure/tatooine/pillar_pristine_tall_style_01.iff	0	609.548	11.8415	901.197	0.876285	0	0.481793	0		$|
2745908	0	object/static/structure/tatooine/wall_pristine_tatooine_tall_style_01.iff	0	601.864	12.0582	896.679	0.876285	0	0.481793	0		$|
2745909	0	object/static/structure/tatooine/wall_pristine_tatooine_tall_style_01.iff	0	616.143	11.9695	905.678	0.876285	0	0.481793	0		$|
2745910	0	object/static/structure/tatooine/pillar_pristine_tall_style_01.iff	0	623.712	12.0043	910.172	0.876285	0	0.481793	0		$|
2745911	0	object/static/structure/tatooine/wall_pristine_tatooine_tall_style_01.iff	0	630.307	12.1576	914.652	0.876285	0	0.481793	0		$|
2745913	0	object/static/installation/mockup_mining_ore_harvester_style_2.iff	0	475.782	12.0708	1101.56	0.9998	0	-0.0199986	0		$|
2745914	0	object/static/installation/mockup_mining_gas_harvester_style_1.iff	0	504.853	11.8209	1099.4	0.625208	0	0.780458	0		$|
2745915	0	object/static/installation/mockup_mining_liquid_moisture_harvester.iff	0	488.503	11.8497	1087.07	1	0	0	0		$|
2745916	0	object/static/structure/tatooine/wall_gate_tatooine_wide_style_01.iff	0	537.36	12.0686	1025.03	0.0749296	0	0.997189	0		$|
2745917	0	object/static/structure/tatooine/wall_pristine_tatooine_large_style_01.iff	0	535.579	11.8535	1013.5	0.92388	0	0.382683	0		$|
2745918	0	object/static/structure/tatooine/pillar_pristine_large_style_01.iff	0	539.245	11.8973	1016.83	0.92388	0	0.382683	0		$|
2745919	0	object/static/structure/tatooine/wall_pristine_tatooine_large_style_01.iff	0	532.086	11.9573	1035.48	0.450834	0	0.892608	0		$|
2745920	0	object/static/structure/tatooine/pillar_pristine_large_style_01.iff	0	535.928	11.9129	1032.35	0.450834	0	0.892608	0		$|
2745922	0	object/building/tatooine/filler_building_block_64x32_style_02.iff	0	537.605	11.9443	919.127	0.949957	0	-0.312382	0		$|
2745925	0	object/building/tatooine/filler_building_tatt_style01_10.iff	0	580.847	11.7263	956.343	0.707096	-0.00353551	0.707099	0.00353552		$|
2745927	0	object/static/structure/tatooine/pillar_pristine_large_style_01.iff	0	550.09	11.6992	979.112	0.717632	0	0.696422	0		$|
2745928	0	object/static/structure/tatooine/wall_gate_tatooine_wide_style_01.iff	0	557.436	12.0574	977.531	0.607334	0	0.794447	0		$|
2745930	0	object/static/structure/tatooine/pillar_pristine_large_style_01.iff	0	565.373	11.9747	975.857	0.879969	0	-0.475032	0		$|
2745931	0	object/static/structure/tatooine/wall_pristine_tatooine_large_style_01.iff	0	545.139	11.7783	979.205	0.717632	0	0.696422	0		$|
2745932	0	object/static/structure/tatooine/wall_pristine_tatooine_large_style_02.iff	0	572.348	11.8285	970.561	0.481792	0	0.876285	0		$|
2746372	0	object/static/structure/tatooine/tent_house_tatooine_style_01.iff	0	457.654	3	1354.46	0.960306	0	-0.278949	0		$|
2746373	0	object/static/structure/tatooine/tent_house_tatooine_style_01.iff	0	469.804	3	1344.87	0.707107	0	0.707106	0		$|
2746374	0	object/static/structure/tatooine/tent_house_tatooine_style_01.iff	0	456.364	3	1339.42	-0.382683	0	0.92388	0		$|
2746375	0	object/static/structure/tatooine/palette_tatooine_style_01.iff	0	467.262	3	1352.2	1	0	0	0		$|
2746376	0	object/static/structure/tatooine/debris_tatt_crate_1.iff	0	467.527	3.12737	1351.77	1	0	0	0		$|
2746377	0	object/static/structure/tatooine/debris_tatt_drum_dented_1.iff	0	466.733	3.14174	1352.47	1	0	0	0		$|
2746384	0	object/static/item/item_crate_spice.iff	0	467.716	3.12649	1352.68	1	0	0	0		$|
4105697	0	object/tangible/terminal/terminal_mission.iff	0	438.273	8.76374	1393.24	0.847255	0	0.531186	0		$|
4105699	0	object/tangible/terminal/terminal_mission.iff	0	479.013	8.78189	1393.41	0.893822	0	-0.448423	0		$|
4105701	0	object/tangible/terminal/terminal_mission.iff	0	402.336	12	1030.4	1	0	0	0		$|
4105703	0	object/tangible/terminal/terminal_mission.iff	0	539.952	11.9023	992.028	0.667463	0	0.744643	0		$|
4105705	0	object/tangible/terminal/terminal_mission.iff	0	477.009	11.947	919.592	0.0468855	0	0.9989	0		$|
4105709	0	object/tangible/terminal/terminal_mission.iff	0	286.683	12.0105	991.702	0.402461	0	0.915437	0		$|
4105711	0	object/tangible/terminal/terminal_mission.iff	0	409.444	12	1103.78	0.561168	0	0.827702	0		$|
4105713	0	object/tangible/terminal/terminal_mission.iff	0	429.692	12	1104.05	-0.536088	0	0.844162	0		$|
4105715	0	object/tangible/terminal/terminal_mission.iff	0	628.738	12.0573	943.173	0.922997	0	-0.384808	0		$|
4105717	0	object/tangible/terminal/terminal_mission.iff	0	403.74	12	1030.4	1	0	0	0		$|
4105719	0	object/tangible/terminal/terminal_mission.iff	0	400.898	12	1030.4	1	0	0	0		$|
4705364	0	object/building/military/outpost_starport.iff	0	458.587	9	1398.2	3.20E-08	0	1	0	structure.municipal.starport	travel.air_time|0|60|travel.cost|0|150|travel.ground_time|0|300|travel.point_name|4|Nym's Stronghold|travel.shuttle_available|0|1|travel.version|0|3|$|
4705366	0	object/tangible/terminal/terminal_bazaar.iff	0	459.197	8.75554	1410.64	-0.00999987	0	0.99995	0		$|
4705367	0	object/tangible/terminal/terminal_bazaar.iff	0	461.661	8.76014	1410.66	0	0	1	0		$|
4705368	0	object/static/item/item_container_inorganic_minerals.iff	0	467.888	8.75985	1410.46	1	0	0	0		$|
4705369	0	object/static/item/item_container_organic_food.iff	0	467.019	8.75828	1410.78	-3.20E-08	0	1	0		$|
4705370	0	object/static/item/item_container_organic_food.iff	0	466.489	8.75838	1410.66	-3.20E-08	0	1	0		$|
4705371	0	object/static/item/item_crate_clothing_small.iff	0	468.947	8.76106	1410.95	0.988771	0	-0.149438	0		$|
4705372	0	object/static/item/item_crate_clothing_small.iff	0	469.761	8.76101	1410.64	0.997189	0	0.0749298	0		$|
4705374	0	object/static/structure/tatooine/debris_tatt_crate_1.iff	0	470.631	9.74079	1410.53	-0.165038	0	0.986287	0		$|
4705375	0	object/static/structure/tatooine/debris_tatt_drum_dented_1.iff	0	470.586	9.23904	1411.26	-0.707107	0.707107	0	0		$|
4865403	0	object/static/structure/general/debris_deathstar_storage.iff	0	426.232	7.1764	1379.83	0.730678	0.589709	-0.207807	0.274172		$|
5705412	0	object/tangible/terminal/terminal_bazaar.iff	0	443.913	12.6	954.379	0.707107	0	-0.707106	0		$|
5705413	0	object/tangible/terminal/terminal_bazaar.iff	0	421.928	12.6	932.434	1	0	0	0		$|
5705414	0	object/tangible/terminal/terminal_bazaar.iff	0	399.891	12.6	954.3	0.707108	0	0.707106	0		$|
5705415	0	object/tangible/terminal/terminal_bazaar.iff	0	421.889	12.6	976.3	-3.20E-08	0	1	0		$|
6045392	0	object/static/structure/general/streetlamp_medium_style_01.iff	0	356.425	11.9474	1071.96	1	0	0	0		$|
6045393	0	object/static/structure/general/streetlamp_medium_style_01.iff	0	314.193	11.8824	1076.54	0.92388	0	-0.382683	0		$|
6045394	0	object/static/structure/general/streetlamp_medium_style_01.iff	0	311.553	12.1706	1019.03	0.707107	0	-0.707107	0		$|
6045395	0	object/static/structure/general/streetlamp_medium_red_style_01.iff	0	218.52	16.822	1030.17	0.909084	0.0781433	-0.35784	0.198521		$|
6045396	0	object/static/structure/general/streetlamp_large_red_style_01.iff	0	270.699	12.0911	985.472	0.707107	0	-0.707106	0		$|
6045397	0	object/static/structure/general/streetlamp_large_red_style_01.iff	0	270.412	12.221	970.797	0.707107	0	-0.707106	0		$|
6045398	0	object/static/structure/general/streetlamp_small_red_style_01.iff	0	329.653	18.2551	947.85	0.688588	-0.20928	-0.225632	0.656612		$|
6045399	0	object/static/structure/general/streetlamp_medium_style_01.iff	0	316.692	12.1403	848.576	-0.382683	0	0.92388	0		$|
6045400	0	object/static/structure/general/streetlamp_small_blue_style_01.iff	0	256.6	18.2471	893.016	-0.696707	0	0	0.717356		$|
6045402	0	object/static/structure/general/streetlamp_large_blue_style_02.iff	0	217.394	11.9593	858.477	-0.382683	0	0.92388	0		$|
6045403	0	object/static/structure/general/streetlamp_large_blue_style_02.iff	0	218.166	11.8472	896.342	0.92388	0	-0.382683	0		$|
6045404	0	object/static/structure/general/streetlamp_large_blue_style_02.iff	0	257.591	11.9968	856.793	0.92388	0	-0.382683	0		$|
6045405	0	object/static/structure/general/streetlamp_small_red_style_01.iff	0	323.801	18.5422	784.583	0.660039	-0.26777	-0.273397	0.646453		$|
6045408	0	object/static/structure/general/streetlamp_medium_red_style_01.iff	0	352.532	11.9968	781.498	0.707107	0	-0.707106	0		$|
6045409	0	object/static/structure/general/streetlamp_medium_red_style_01.iff	0	356.71	12.0855	753.923	0.707107	0	-0.707106	0		$|
6045410	0	object/static/structure/general/streetlamp_medium_style_01.iff	0	323.191	12.0378	1031.92	0.707107	0	-0.707107	0		$|
6045411	0	object/static/structure/general/streetlamp_small_red_style_01.iff	0	504.627	11.8015	1096.03	0.992198	0	0.124675	0		$|
6045412	0	object/static/structure/general/streetlamp_medium_style_01.iff	0	559.168	11.89	1039.73	0.789748	0	-0.613431	0		$|
6045413	0	object/static/structure/general/streetlamp_small_red_style_01.iff	0	537.765	18.19	1025.09	0.707388	0	0	-0.706825		$|
6045414	0	object/static/structure/general/streetlamp_small_red_style_01.iff	0	557.587	18.0943	977.876	0.694821	0.708294	0.0873078	-0.0890007		$|
6045415	0	object/static/structure/general/streetlamp_large_red_style_01.iff	0	644.581	11.9652	949.975	0.707107	0	0.707107	0		$|
6045416	0	object/static/structure/general/streetlamp_large_red_style_01.iff	0	644.641	12.0263	963.676	0.707107	0	0.707106	0		$|
6045417	0	object/static/structure/general/streetlamp_medium_style_01.iff	0	609.58	11.89	1027.13	0.780458	0	-0.625208	0		$|
6045418	0	object/static/structure/general/streetlamp_medium_style_01.iff	0	569.573	11.9272	894.866	0.982436	0	-0.186599	0		$|
6045419	0	object/static/structure/general/streetlamp_medium_style_01.iff	0	523.118	11.9169	893.402	0.946785	0	-0.321865	0		$|
6045420	0	object/static/structure/general/streetlamp_medium_style_01.iff	0	521.968	12.1224	947.25	0.92388	0	-0.382683	0		$|
6045421	0	object/static/structure/general/streetlamp_medium_style_01.iff	0	516.481	11.8729	917.387	0.953033	0	-0.302867	0		$|
6045424	0	object/static/structure/general/streetlamp_large_green_style_01.iff	0	392.67	12.491	925.133	-0.382683	0	0.92388	0		$|
6045425	0	object/static/structure/general/streetlamp_large_green_style_01.iff	0	451.14	12.5507	925.113	0.382683	0	0.92388	0		$|
6045426	0	object/static/structure/general/streetlamp_large_green_style_01.iff	0	451.49	12.5147	983.898	0.92388	0	0.382683	0		$|
6045427	0	object/static/structure/general/streetlamp_large_green_style_01.iff	0	392.334	12.5074	983.883	0.92388	0	-0.382683	0		$|
6045430	0	object/static/structure/general/streetlamp_large_red_style_01.iff	0	373.2	11.9942	893.276	0.382683	0	0.92388	0		$|
6045434	0	object/static/structure/general/streetlamp_medium_style_01.iff	0	462.097	11.994	1007.1	0.707107	0	-0.707106	0		$|
6045438	0	object/static/structure/general/streetlamp_medium_style_01.iff	0	597.227	12.0193	953.278	0.707107	0	-0.707106	0		$|
6255517	0	object/soundobject/soundobject_sparks.iff	0	438.693	34.0326	680.018	1	0	0	0		$|
6595494	0	object/static/structure/tatooine/debris_tatt_crate_1.iff	0	2006.48	12.817	858.028	0.965127	0.151214	0.213524	-0.00848719		$|
6595495	0	object/static/structure/tatooine/debris_tatt_crate_metal_1.iff	0	1998.21	13.1023	862.818	0.674876	0.737931	0	0		$|
6595508	0	object/building/lok/nym_stronghold.iff	0	475.129	12	693.65	1	0	0	0	theme_park.nym.stronghold	$|
7805582	0	object/static/structure/tatooine/wall_pristine_tatooine_tall_style_01.iff	0	516.05	11.9454	864.536	0.250018	0	0.968241	0		$|
7805583	0	object/static/structure/tatooine/pillar_pristine_tall_style_01.iff	0	520.739	11.9098	857.614	0.856318	0	0.51645	0		$|
7805586	0	object/static/structure/tatooine/wall_pristine_tatooine_tall_style_01.iff	0	369.384	11.9133	760.756	1	0	0	0		$|
7805587	0	object/static/structure/tatooine/wall_pristine_tatooine_tall_style_01.iff	0	368.486	11.9133	777.324	0.0257932	0	0.999667	0		$|
7805588	0	object/static/structure/tatooine/pillar_pristine_tall_style_01.iff	0	368.666	11.9133	768.387	0.0257932	0	0.999667	0		$|
7805589	0	object/static/structure/tatooine/pillar_pristine_tall_style_01.iff	0	369.621	12.043	752.84	1	0	0	0		$|
7805590	0	object/static/structure/tatooine/wall_pristine_tatooine_tall_style_01.iff	0	363.634	11.8819	729.509	0.922109	0	0.386931	0		$|
7806133	0	object/static/structure/tatooine/stair_tatooine_large_style_01.iff	0	472.913	6.1532	803.363	-3.20E-08	0	1	0		$|
7806135	0	object/static/structure/tatooine/bridge_tatooine_small_style_01.iff	0	472.913	22.1232	819.325	1	0	0	0		$|
7806136	0	object/static/structure/tatooine/bridge_tatooine_small_style_01.iff	0	481.024	22.1232	819.32	1	0	0	0		$|
7806137	0	object/static/structure/tatooine/stair_tatooine_large_style_01.iff	0	481.023	6.1532	803.358	0	0	1	0		$|
7806148	0	object/static/structure/tatooine/pillar_pristine_tall_style_01.iff	0	477.556	21.7681	823.4	1	0	0	0		$|
7806149	0	object/static/structure/tatooine/pillar_pristine_tall_style_01.iff	0	485.225	21.7452	823.4	1	0	0	0		$|
7806156	0	object/static/structure/tatooine/pillar_pristine_tall_style_01.iff	0	469.63	21.7454	823.4	1	0	0	0		$|
7806157	0	object/static/structure/tatooine/wall_pristine_tatooine_tall_style_01.iff	0	460.801	21.7454	822.625	0.707108	0	0.707105	0		$|
7806158	0	object/static/structure/tatooine/wall_pristine_tatooine_tall_style_01.iff	0	493.205	21.7454	822.632	0.707118	0	0.707095	0		$|
7806166	0	object/static/structure/tatooine/skeleton_krayt_head_style_02.iff	0	477.1	30.0267	823.314	0.813873	0.581041	0.0011642	-0.0011642		$|
7806167	0	object/static/structure/tatooine/skeleton_krayt_head_style_02.iff	0	477.118	30.0267	822.468	-0.00146731	-0.000746086	0.804603	-0.593811		$|
7806168	0	object/building/endor/endor_tiki_torch.iff	0	476.992	29.0531	822.845	1	0	0	0		$|
7806181	0	object/static/structure/tatooine/skeleton_greater_krayt_spine_large.iff	0	479.474	29.8174	822.617	0.707108	0	0.707106	0		$|
7806182	0	object/static/structure/tatooine/skeleton_greater_krayt_spine_large.iff	0	474.56	29.7531	823.141	-0.707105	0	0.707108	0		$|
7855901	0	object/static/structure/tatooine/jawa/tent_jawa_01_med.iff	0	481.72	23	865.266	0.855127	0	0.518418	0		$|
7895585	0	object/tangible/terminal/terminal_mission_scout.iff	0	438.899	12	1030.82	1	0	0	0		$|
7895587	0	object/tangible/terminal/terminal_mission_scout.iff	0	436.899	12	1030.82	1	0	0	0		$|
7895589	0	object/tangible/terminal/terminal_mission_scout.iff	0	434.899	12	1030.82	1	0	0	0		$|
7895596	0	object/tangible/terminal/terminal_mission_entertainer.iff	0	479.647	11.8678	919.598	0.0549723	0	0.998488	0		$|
7895598	0	object/tangible/terminal/terminal_mission_entertainer.iff	0	478.38	11.873	919.556	0.0449848	0	0.998988	0		$|
7895600	0	object/tangible/terminal/terminal_mission.iff	0	481.358	11.8499	919.755	0.046886	0	0.9989	0		$|
7895604	0	object/static/structure/tatooine/jawa/tent_jawa_01_small.iff	0	363.153	12.0515	1008.65	1	0	0	0		$|
7895607	0	object/tangible/furniture/all/frn_all_professor_desk.iff	0	363.19	11.8894	1006.78	1	0	0	0		$|
7895608	0	object/static/item/item_tech_console_sectional_a.iff	0	360.273	11.6233	1008.6	0.707107	0	0.707106	0		$|
8145352	0	object/building/tatooine/hotel_tatooine_style_01.iff	0	419.977	12	1010.75	1	0	0	0		$|
8145375	0	object/building/tatooine/cantina_tatooine.iff	0	499.718	11.88	968.887	0.945784	0	-0.324796	0	theme_park.lok.cantina:planet_map.map_loc:structure.municipal.cantina:theme_park.dungeon.empire_day_interior_npc_spawner	healing.canhealshock|0|1|safeLogout|0|1|empire_day_spawn_table|4|datatables/spawning/building_spawns/empire_day_rebel_nyms.iff|$|
8145391	0	object/static/structure/tatooine/wall_pristine_tatooine_large_style_01.iff	0	538.801	11.8321	982.327	0.310194	0	0.950673	0		$|
8145392	0	object/static/structure/tatooine/pillar_pristine_large_style_01.iff	0	541.855	11.7171	978.919	0.795843	0	0.605503	0		$|
8655556	0	object/static/structure/tatooine/wall_pristine_tatooine_tall_style_01.iff	0	508.229	11.9537	878.759	0.250018	0	0.968241	0		$|
8655557	0	object/static/structure/tatooine/pillar_pristine_tall_style_01.iff	0	512.918	12.0177	871.837	0.856317	0	0.516451	0		$|
8655558	0	object/static/structure/tatooine/pillar_pristine_tall_style_01.iff	0	505.077	11.8696	886.091	0.856317	0	0.516451	0		$|
8655559	0	object/static/structure/tatooine/wall_gate_tatooine_style_01.iff	0	508.134	11.8142	888.444	0.87978	0	0.475381	0		$|
8655560	0	object/static/structure/tatooine/wall_pristine_tatooine_large_style_01.iff	0	515.264	11.9478	893.187	0.882333	0	0.470625	0		$|
8655561	0	object/static/structure/tatooine/pillar_pristine_large_style_01.iff	0	512.174	11.9754	890.828	0.882146	0	0.470977	0		$|
8655562	0	object/static/structure/tatooine/wall_pristine_tatooine_tall_style_01.iff	0	498.505	11.4961	892.11	0.382683	0	0.923879	0		$|
8655563	0	object/static/structure/tatooine/pillar_pristine_tall_style_01.iff	0	493.449	11.9751	898.286	0.920006	0	0.391905	0		$|
8655564	0	object/static/structure/tatooine/wall_pristine_tatooine_tall_style_01.iff	0	484.775	11.9358	899.002	0.665153	0	0.746707	0		$|
8655565	0	object/static/structure/tatooine/pillar_pristine_tall_style_01.iff	0	476.977	11.8734	900.704	0.997709	0	0.0676498	0		$|
8655566	0	object/static/structure/tatooine/wall_pristine_tatooine_tall_style_01.iff	0	468.66	11.9278	900.724	0.672587	0	0.740018	0		$|
8655567	0	object/static/structure/tatooine/pillar_pristine_tall_style_01.iff	0	460.831	11.9334	902.268	0.998336	0	0.0576694	0		$|
8655569	0	object/static/structure/tatooine/wall_pristine_tatooine_large_style_01.iff	0	486.804	12.123	998.161	0.876285	0	-0.481792	0		$|
8655570	0	object/static/structure/tatooine/wall_pristine_tatooine_tall_style_01.iff	0	452.051	11.8837	902.192	0.679953	0	0.733256	0		$|
8655571	0	object/building/tatooine/filler_building_tatt_style01_09.iff	0	408.11	11.9368	909.779	-0.37129	0	0.928517	0		$|
8655573	0	object/building/tatooine/filler_building_tatt_style01_02.iff	0	439.792	12	909.074	1	0	0	0		$|
8655574	0	object/static/structure/tatooine/wall_pristine_tatooine_tall_style_01.iff	0	423.466	11.9523	908.992	0.707107	0	-0.707106	0		$|
8655575	0	object/static/structure/tatooine/wall_gate_tatooine_wide_style_01.iff	0	384.234	11.9657	904.394	0.7566	0	0.653878	0		$|
8655576	0	object/static/structure/tatooine/pillar_pristine_large_style_01.iff	0	376.55	12	903.731	0.998988	0	0.0449848	0		$|
8655577	0	object/static/structure/tatooine/wall_pristine_tatooine_large_style_01.iff	0	396.42	12	907.601	-0.56274	0	0.826634	0		$|
8655578	0	object/static/structure/tatooine/pillar_pristine_large_style_01.iff	0	392.25	12	905.136	0.186599	0	0.982436	0		$|
8655579	0	object/static/structure/general/streetlamp_medium_style_01.iff	0	392.195	12	906.786	0.986418	0	-0.164252	0		$|
8655580	0	object/static/structure/general/streetlamp_medium_style_01.iff	0	376.111	12.027	904.286	0.999388	0	0.0349929	0		$|
8925369	0	object/static/structure/lok/lok_imprv_flagpole_s01.iff	0	420.074	38.5735	1009.57	1	0	0	0		$|
8925370	0	object/static/structure/lok/lok_imprv_bannerpole_s01.iff	0	428.402	11.687	1123.57	1	0	0	0		$|
8925371	0	object/static/structure/lok/lok_imprv_bannerpole_s01.iff	0	410.557	11.9381	1123.74	1	0	0	0		$|
8925372	0	object/static/structure/lok/lok_imprv_flagpole_s01.iff	0	484.731	30.3995	822.923	1	0	0	0		$|
8925373	0	object/static/structure/lok/lok_imprv_flagpole_s01.iff	0	469.164	30.3922	822.907	1	0	0	0		$|
8925382	0	object/static/structure/tatooine/pillar_pristine_large_style_01.iff	0	415.36	-1.40168	1258.59	1	0	0	0		$|
8925383	0	object/static/structure/tatooine/pillar_pristine_large_style_01.iff	0	419.36	-1.41953	1258.59	1	0	0	0		$|
8925385	0	object/static/structure/tatooine/pillar_pristine_large_style_01.iff	0	425.598	-1.42259	1258.57	1	0	0	0		$|
8925386	0	object/static/structure/tatooine/pillar_pristine_large_style_01.iff	0	421.528	-1.43247	1258.59	1	0	0	0		$|
8925472	0	object/static/structure/tatooine/pillar_pristine_large_style_01.iff	0	420.453	-0.614486	1258.58	1	0	0	0		$|
8925488	0	object/static/structure/tatooine/pillar_pristine_large_style_01.iff	0	415.393	-1.81341	1290.43	1	0	0	0		$|
8925489	0	object/static/structure/tatooine/pillar_pristine_large_style_01.iff	0	419.393	-1.81122	1290.43	1	0	0	0		$|
8925490	0	object/static/structure/tatooine/pillar_pristine_large_style_01.iff	0	425.631	-1.79748	1290.42	1	0	0	0		$|
8925491	0	object/static/structure/tatooine/pillar_pristine_large_style_01.iff	0	421.563	-1.79767	1290.43	1	0	0	0		$|
8925492	0	object/static/structure/tatooine/pillar_pristine_large_style_01.iff	0	420.487	-1.17616	1290.43	1	0	0	0		$|
8925495	0	object/static/structure/tatooine/pillar_pristine_large_style_01.iff	0	415.394	-1.49576	1322.46	1	0	0	0		$|
8925496	0	object/static/structure/tatooine/pillar_pristine_large_style_01.iff	0	419.395	-1.54032	1322.46	1	0	0	0		$|
8925497	0	object/static/structure/tatooine/pillar_pristine_large_style_01.iff	0	425.632	-1.54805	1322.44	1	0	0	0		$|
8925498	0	object/static/structure/tatooine/pillar_pristine_large_style_01.iff	0	421.564	-1.5387	1322.46	1	0	0	0		$|
8925499	0	object/static/structure/tatooine/pillar_pristine_large_style_01.iff	0	420.488	-0.51419	1322.45	1	0	0	0		$|
8925500	0	object/static/structure/lok/lok_imprv_flagpole_s01.iff	0	419.981	3.37508	1321.96	1	0	0	0		$|
8925501	0	object/static/structure/lok/lok_imprv_flagpole_s01.iff	0	419.997	2.88091	1289.97	1	0	0	0		$|
8925502	0	object/static/structure/lok/lok_imprv_flagpole_s01.iff	0	419.988	3.45366	1258.06	1	0	0	0		$|
8925503	0	object/static/structure/general/streetlamp_large_style_01.iff	0	425.072	1.11974	1321.92	0.707108	0	-0.707106	0		$|
8925504	0	object/static/structure/general/streetlamp_large_style_01.iff	0	414.871	1.15645	1321.89	0.707105	0	0.707108	0		$|
8925505	0	object/static/structure/general/streetlamp_large_style_01.iff	0	425.087	0.339818	1289.89	0.707112	0	-0.707101	0		$|
8925506	0	object/static/structure/general/streetlamp_large_style_01.iff	0	414.92	0.454538	1289.92	0.710077	0	0.704123	0		$|
8925507	0	object/static/structure/general/streetlamp_large_style_01.iff	0	425.066	0.823532	1258.13	0.707112	0	-0.707101	0		$|
8925508	0	object/static/structure/general/streetlamp_large_style_01.iff	0	414.89	0.823532	1258.13	0.707101	0	0.707112	0		$|
8925510	0	object/static/vehicle/e3/landspeeder.iff	0	515.916	12.0124	1001.54	0.140332	0	0.990104	0		$|
9025496	0	object/static/structure/tatooine/shed_junkshop_watto.iff	0	1838.96	14.3529	1669.2	1	0	0	0		$|
9025497	0	object/static/structure/general/tankfarm_s01.iff	0	1846.01	13.687	1681.92	0.488872	0	0.872355	0		$|
9025498	0	object/static/structure/general/poi_tato_farm_32x32_s01.iff	0	1854.56	14.5928	1676.56	0.0107966	0	0.999942	0		$|
9025499	0	object/static/structure/tatooine/beam_tatooine_overhead_style_02.iff	0	1858.77	16.8507	1654.28	-0.553156	0.15731	0.817347	-0.034862		$|
9025500	0	object/static/structure/tatooine/pillar_pristine_large_style_01.iff	0	1846.12	16.2299	1656.04	0.82752	0.120131	0.193758	0.513067		$|
9025501	0	object/static/structure/tatooine/pillar_pristine_large_style_01.iff	0	1858.51	16.0795	1657.17	0.855128	0	0.518418	0		$|
9025502	0	object/static/structure/tatooine/pillar_pristine_tall_style_01.iff	0	1842.35	13.7949	1658.09	0.972514	0	0.232843	0		$|
9685922	0	object/tangible/camp/camp_tent_s1.iff	0	1997.34	13.226	865.949	-0.123885	0	0.992297	0		$|
9685923	0	object/tangible/camp/camp_tent_s1.iff	0	2001.67	12.9557	863.313	-0.465505	0	0.885046	0		$|
9685924	0	object/tangible/camp/camp_tent_s1.iff	0	2003.64	12.8201	859.023	-0.688345	0	0.725384	0		$|
9685926	0	object/tangible/camp/campfire_logs_ash.iff	0	1998.65	12.9388	860.598	1	0	0	0		$|
9685928	0	object/tangible/camp/camp_lawn_chair.iff	0	2001.32	12.8754	860.191	-0.392153	-0.459029	0.716474	0.349533		$|
9685929	0	object/tangible/camp/camp_stool_tall.iff	0	1998.77	12.9901	862.275	-0.571792	0.110275	0.358485	0.729645		$|
2745864	0	object/building/tatooine/hospital_tatooine_style01.iff	0	583.936	11.89	1033.62	0.617374	0	0.78667	0		$|
