NAME	TREE	TIER	GRID	RANK	PREREQ_LEVEL	PREREQ_FACTION	REQ_PROF
s	i[1]	i[1]	i[1]	i[1]	i[1]	s	s[all]
expertise_test_add_proc	99	1	1	1
expertise_test_add_reac	99	1	2	1
expertise_test_prereq1_1	99	3	3	1
expertise_test_prereq2_1	99	3	4	1
expertise_test_prereq3_1	99	3	5	1
expertise_test_postreq_1	99	5	4	1
expertise_bh_ass_act_1	2	1	1	1			bounty_hunter
expertise_bh_ass_act_2	2	1	1	2			bounty_hunter
expertise_bh_ass_act_3	2	1	1	3			bounty_hunter
expertise_bh_ass_act_4	2	1	1	4			bounty_hunter
expertise_bh_ass_dam_1	2	2	1	1			bounty_hunter
expertise_bh_ass_dam_2	2	2	1	2			bounty_hunter
expertise_bh_ass_dam_3	2	2	1	3			bounty_hunter
expertise_bh_ass_cool_1	2	3	1	1			bounty_hunter
expertise_bh_ass_cool_2	2	3	1	2			bounty_hunter
expertise_bh_innate_1	2	5	1	1			bounty_hunter
expertise_bh_return_fire_1	2	2	3	1			bounty_hunter
expertise_bh_taunt_1	2	3	3	1			bounty_hunter
expertise_bh_fumble_1	2	4	3	1			bounty_hunter
expertise_bh_stun_1	99	5	3	1			bounty_hunter
expertise_bh_prescience	2	5	3	1			bounty_hunter
expertise_bh_absorbtion_1	2	1	4	1			bounty_hunter
expertise_bh_absorbtion_2	2	1	4	2			bounty_hunter
expertise_bh_absorbtion_3	2	1	4	3			bounty_hunter
expertise_bh_absorbtion_4	2	1	4	4			bounty_hunter
expertise_bh_deflection_1	2	3	4	1			bounty_hunter
expertise_bh_deflection_2	2	3	4	2			bounty_hunter
expertise_bh_deflection_3	2	3	4	3			bounty_hunter
expertise_bh_deflection_4	2	3	4	4			bounty_hunter
expertise_bh_shields_1	2	5	4	1			bounty_hunter
expertise_bh_amb_act_1	2	1	5	1			bounty_hunter
expertise_bh_amb_act_2	2	1	5	2			bounty_hunter
expertise_bh_amb_act_3	2	1	5	3			bounty_hunter
expertise_bh_amb_act_4	2	1	5	4			bounty_hunter
expertise_bh_amb_dam_1	2	2	5	1			bounty_hunter
expertise_bh_amb_dam_2	2	2	5	2			bounty_hunter
expertise_bh_amb_dam_3	2	2	5	3			bounty_hunter
expertise_bh_amb_cool_1	2	3	5	1			bounty_hunter
expertise_bh_amb_cool_2	2	3	5	2			bounty_hunter
expertise_bh_surprise_1	2	4	5	1			bounty_hunter
expertise_bh_amb_dam_cool	2	4	6	1			bounty_hunter
expertise_bh_man_crit_1	2	5	5	1			bounty_hunter
expertise_bh_man_crit_2	2	5	5	2			bounty_hunter
expertise_bh_man_crit_3	2	5	5	3			bounty_hunter
expertise_bh_man_crit_4	2	5	5	4			bounty_hunter
expertise_bh_trap_dam_1	2	1	7	1			bounty_hunter
expertise_bh_trap_dam_2	2	1	7	2			bounty_hunter
expertise_bh_trap_dam_3	2	1	7	3			bounty_hunter
expertise_bh_trap_dam_4	2	1	7	4			bounty_hunter
expertise_bh_trap_rng_1	2	2	7	1			bounty_hunter
expertise_bh_trap_rng_2	2	2	7	2			bounty_hunter
expertise_bh_trap_duration_1	2	3	7	1			bounty_hunter
expertise_bh_trap_duration_2	2	3	7	2			bounty_hunter
expertise_bh_trap_duration_3	2	3	7	3			bounty_hunter
expertise_bh_intimidate_1	2	4	7	1			bounty_hunter
expertise_bh_dread_strike_1	2	5	7	1			bounty_hunter
expertise_bh_stamina_1	1	1	1	1			bounty_hunter
expertise_bh_stamina_2	1	1	1	2			bounty_hunter
expertise_bh_stamina_3	1	1	1	3			bounty_hunter
expertise_bh_stamina_4	1	1	1	4			bounty_hunter
expertise_bh_precision_1	1	1	3	1			bounty_hunter
expertise_bh_precision_2	1	1	3	2			bounty_hunter
expertise_bh_precision_3	1	1	3	3			bounty_hunter
expertise_bh_precision_4	1	1	3	4			bounty_hunter
expertise_bh_agility_1	1	1	5	1			bounty_hunter
expertise_bh_agility_2	1	1	5	2			bounty_hunter
expertise_bh_agility_3	1	1	5	3			bounty_hunter
expertise_bh_agility_4	1	1	5	4			bounty_hunter
expertise_bh_constitution_1	1	1	7	1			bounty_hunter
expertise_bh_constitution_2	1	1	7	2			bounty_hunter
expertise_bh_constitution_3	1	1	7	3			bounty_hunter
expertise_bh_constitution_4	1	1	7	4			bounty_hunter
expertise_bh_carbine_act_1	1	2	1	1			bounty_hunter
expertise_bh_carbine_act_2	1	2	1	2			bounty_hunter
expertise_bh_carbine_act_3	1	2	1	3			bounty_hunter
expertise_bh_carbine_act_4	1	2	1	4			bounty_hunter
expertise_bh_carbine_dam_1	1	3	1	1			bounty_hunter
expertise_bh_carbine_dam_2	1	3	1	2			bounty_hunter
expertise_bh_carbine_crit_1	1	4	1	1			bounty_hunter
expertise_bh_relentless_1	1	5	1	1			bounty_hunter
expertise_bh_rifle_act_1	1	2	3	1			bounty_hunter
expertise_bh_rifle_act_2	1	2	3	2			bounty_hunter
expertise_bh_rifle_act_3	1	2	3	3			bounty_hunter
expertise_bh_rifle_act_4	1	2	3	4			bounty_hunter
expertise_bh_rifle_dam_1	1	3	3	1			bounty_hunter
expertise_bh_rifle_dam_2	1	3	3	2			bounty_hunter
expertise_bh_sniper_1	1	4	3	1			bounty_hunter
expertise_bh_cover_1	1	5	3	1			bounty_hunter
expertise_bh_armor_kin_1	1	3	5	1			bounty_hunter
expertise_bh_armor_kin_2	1	3	5	2			bounty_hunter
expertise_bh_armor_kin_3	1	3	5	3			bounty_hunter
expertise_bh_armor_kin_4	1	3	5	4			bounty_hunter
expertise_bh_armor_mgb_1	1	4	5	1			bounty_hunter
expertise_bh_armor_mgb_2	1	4	5	2			bounty_hunter
expertise_bh_armor_mgb_3	1	4	5	3			bounty_hunter
expertise_bh_armor_sprint_1	1	5	5	1			bounty_hunter
expertise_bh_armor_eng_1	1	3	7	1			bounty_hunter
expertise_bh_armor_eng_2	1	3	7	2			bounty_hunter
expertise_bh_armor_eng_3	1	3	7	3			bounty_hunter
expertise_bh_armor_eng_4	1	3	7	4			bounty_hunter
expertise_bh_armor_rgb_1	1	4	7	1			bounty_hunter
expertise_bh_armor_rgb_2	1	4	7	2			bounty_hunter
expertise_bh_armor_rgb_3	1	4	7	3			bounty_hunter
expertise_bh_armor_duelist_1	1	5	7	1			bounty_hunter
expertise_fs_general_enhanced_strength_1	4	1	3	1			force_sensitive
expertise_fs_general_enhanced_strength_2	4	1	3	2			force_sensitive
expertise_fs_general_enhanced_constitution_1	4	1	4	1			force_sensitive
expertise_fs_general_enhanced_constitution_2	4	1	4	2			force_sensitive
expertise_fs_general_enhanced_agility_1	4	1	5	1			force_sensitive
expertise_fs_general_enhanced_agility_2	4	1	5	2			force_sensitive
expertise_fs_general_enhanced_stamina_1	4	1	6	1			force_sensitive
expertise_fs_general_enhanced_stamina_2	4	1	6	2			force_sensitive
expertise_fs_general_improved_force_throw_1	4	2	2	1			force_sensitive
expertise_fs_general_improved_force_throw_2	4	2	2	2			force_sensitive
expertise_fs_general_alacrity_1	4	2	5	1			force_sensitive
expertise_fs_general_alacrity_2	4	2	5	2			force_sensitive
expertise_fs_general_alacrity_3	4	2	5	3			force_sensitive
expertise_fs_general_alacrity_4	4	2	5	4			force_sensitive
expertise_fs_general_improved_crippling_accuracy_1	4	3	2	1			force_sensitive
expertise_fs_general_improved_crippling_accuracy_2	4	3	2	2			force_sensitive
expertise_fs_general_improved_crippling_accuracy_3	4	3	2	3			force_sensitive
expertise_fs_general_exacting_strikes_1	4	3	4	1			force_sensitive
expertise_fs_general_exacting_strikes_2	4	3	4	2			force_sensitive
expertise_fs_general_exacting_strikes_3	4	3	4	3			force_sensitive
expertise_fs_general_exacting_strikes_4	4	3	4	4			force_sensitive
expertise_fs_general_force_cloak_1	4	3	5	1			force_sensitive
expertise_fs_general_heightened_speed_1	4	3	6	1			force_sensitive
expertise_fs_general_heightened_speed_2	4	3	6	2			force_sensitive
expertise_fs_general_heightened_speed_3	4	3	6	3			force_sensitive
expertise_fs_general_heightened_speed_4	4	3	6	4			force_sensitive
expertise_fs_general_stance_saber_block_1	4	4	2	1			force_sensitive
expertise_fs_general_improved_saber_block_1	4	4	3	1			force_sensitive
expertise_fs_general_improved_saber_block_2	4	4	3	2			force_sensitive
expertise_fs_general_improved_saber_block_3	4	4	3	3			force_sensitive
expertise_fs_general_incisiveness_1	4	4	4	1			force_sensitive
expertise_fs_general_incisiveness_2	4	4	4	2			force_sensitive
expertise_fs_general_incisiveness_3	4	4	4	3			force_sensitive
expertise_fs_general_incisiveness_4	4	4	4	4			force_sensitive
expertise_fs_general_second_wind_1	4	4	6	1			force_sensitive
expertise_fs_general_second_wind_2	4	4	6	2			force_sensitive
expertise_fs_general_force_shockwave_1	4	5	2	1			force_sensitive
expertise_fs_general_improved_force_shockwave_1	4	5	3	1			force_sensitive
expertise_fs_general_improved_force_shockwave_2	4	5	3	2			force_sensitive
expertise_fs_general_improved_force_shockwave_3	4	5	3	3			force_sensitive
expertise_fs_general_fidelity_1	4	5	4	1			force_sensitive
expertise_fs_general_fidelity_2	4	5	4	2			force_sensitive
expertise_fs_general_fidelity_3	4	5	4	3			force_sensitive
expertise_fs_general_fidelity_4	4	5	4	4			force_sensitive
expertise_fs_general_improved_force_cloak_1	4	5	5	1			force_sensitive
expertise_fs_path_cautious_nature_1	5	1	2	1			force_sensitive
expertise_fs_path_cautious_nature_2	5	1	2	2			force_sensitive
expertise_fs_path_cautious_nature_3	5	1	2	3			force_sensitive
expertise_fs_path_cautious_nature_4	5	1	2	4			force_sensitive
expertise_fs_path_remorseless_nature_1	5	1	6	1			force_sensitive
expertise_fs_path_remorseless_nature_2	5	1	6	2			force_sensitive
expertise_fs_path_remorseless_nature_3	5	1	6	3			force_sensitive
expertise_fs_path_remorseless_nature_4	5	1	6	4			force_sensitive
expertise_fs_path_saber_shackle_1	5	2	1	1			force_sensitive
expertise_fs_path_saber_shackle_2	5	2	1	2			force_sensitive
expertise_fs_path_saber_shackle_3	5	2	1	3			force_sensitive
expertise_fs_path_saber_shackle_4	5	2	1	4			force_sensitive
expertise_fs_path_riposte_1	5	2	2	1			force_sensitive
expertise_fs_path_riposte_2	5	2	2	2			force_sensitive
expertise_fs_path_perceptive_sentinel_1	5	2	3	1			force_sensitive
expertise_fs_path_perceptive_sentinel_2	5	2	3	2			force_sensitive
expertise_fs_path_perceptive_sentinel_3	5	2	3	3			force_sensitive
expertise_fs_path_perceptive_sentinel_4	5	2	3	4			force_sensitive
expertise_fs_path_brutality_1	5	2	5	1			force_sensitive
expertise_fs_path_brutality_2	5	2	5	2			force_sensitive
expertise_fs_path_brutality_3	5	2	5	3			force_sensitive
expertise_fs_path_brutality_4	5	2	5	4			force_sensitive
expertise_fs_path_ruthless_precision_1	5	2	7	1			force_sensitive
expertise_fs_path_ruthless_precision_2	5	2	7	2			force_sensitive
expertise_fs_path_ruthless_precision_3	5	2	7	3			force_sensitive
expertise_fs_path_ruthless_precision_4	5	2	7	4			force_sensitive
expertise_fs_path_reactive_response_1	5	3	1	1			force_sensitive
expertise_fs_path_reactive_response_2	5	3	1	2			force_sensitive
expertise_fs_path_saber_reflect_1	5	3	2	1			force_sensitive
expertise_fs_path_forsake_fear_1	5	3	3	1			force_sensitive
expertise_fs_path_cloud_minds_1	5	3	4	1			force_sensitive
expertise_fs_path_dark_lightning_1	5	3	5	1			force_sensitive
expertise_fs_path_tempt_hatred_1	5	3	6	1			force_sensitive
expertise_fs_path_tempt_hatred_2	5	3	6	2			force_sensitive
expertise_fs_path_force_choke_1	5	3	7	1			force_sensitive
expertise_fs_path_force_clarity_1	5	4	1	1			force_sensitive
expertise_fs_path_improved_saber_reflect_1	5	4	2	1			force_sensitive
expertise_fs_path_improved_saber_reflect_2	5	4	2	2			force_sensitive
expertise_fs_path_hermetic_touch_1	5	4	3	1			force_sensitive
expertise_fs_path_expansive_trickery_1	5	4	4	1			force_sensitive
expertise_fs_path_expansive_trickery_2	5	4	4	2			force_sensitive
expertise_fs_path_expansive_trickery_3	5	4	4	3			force_sensitive
expertise_fs_path_maelstrom_1	5	4	5	1			force_sensitive
expertise_fs_path_force_drain_1	5	4	6	1			force_sensitive
expertise_fs_path_improved_force_choke_1	5	4	7	1			force_sensitive
expertise_fs_path_improved_force_choke_2	5	4	7	2			force_sensitive
expertise_fs_path_anticipate_aggression_1	5	5	1	1			force_sensitive
expertise_fs_path_anticipate_aggression_2	5	5	1	2			force_sensitive
expertise_fs_path_flurry	5	5	2	1			force_sensitive
expertise_fs_path_soothing_aura_1	5	5	3	1			force_sensitive
expertise_fs_path_soothing_aura_2	5	5	3	2			force_sensitive
expertise_fs_path_soothing_aura_3	5	5	3	3			force_sensitive
expertise_fs_path_soothing_aura_4	5	5	3	4			force_sensitive
expertise_fs_path_lethargy_1	5	5	4	1			force_sensitive
expertise_fs_path_lethargy_2	5	5	4	2			force_sensitive
expertise_fs_path_lethargy_3	5	5	4	3			force_sensitive
expertise_fs_path_lethargy_4	5	5	4	4			force_sensitive
expertise_fs_path_wracking_energy_1	5	5	5	1			force_sensitive
expertise_fs_path_wracking_energy_2	5	5	5	2			force_sensitive
expertise_fs_path_wracking_energy_3	5	5	5	3			force_sensitive
expertise_fs_path_wracking_energy_4	5	5	5	4			force_sensitive
expertise_fs_path_improved_force_drain_1	5	5	6	1			force_sensitive
expertise_fs_path_improved_force_drain_2	5	5	6	2			force_sensitive
expertise_fs_path_improved_force_drain_3	5	5	6	3			force_sensitive
expertise_fs_path_strangulation_1	5	5	7	1			force_sensitive
expertise_fs_path_strangulation_2	5	5	7	2			force_sensitive
expertise_sm_general_enhanced_precision_1	7	1	2	1			smuggler
expertise_sm_general_enhanced_precision_2	7	1	2	2			smuggler
expertise_sm_general_hidden_padding_1	7	1	3	1			smuggler
expertise_sm_general_hidden_padding_2	7	1	3	2			smuggler
expertise_sm_general_gun_oil_1	7	1	4	1			smuggler
expertise_sm_general_elbow_grease_1	7	1	5	1			smuggler
expertise_sm_general_enhanced_luck_1	7	1	6	1			smuggler
expertise_sm_general_enhanced_luck_2	7	1	6	2			smuggler
expertise_sm_general_spot_a_sucker_1	7	2	2	1			smuggler
expertise_sm_general_hair_trigger_1	7	2	4	1			smuggler
expertise_sm_general_hair_trigger_2	7	2	4	2			smuggler
expertise_sm_general_hair_trigger_3	7	2	4	3			smuggler
expertise_sm_general_hair_trigger_4	7	2	4	4			smuggler
expertise_sm_general_switcheroo_1	7	2	5	1			smuggler
expertise_sm_general_switcheroo_2	7	2	5	2			smuggler
expertise_sm_general_switcheroo_3	7	2	5	3			smuggler
expertise_sm_general_switcheroo_4	7	2	5	4			smuggler
expertise_sm_general_off_the_cuff_1	7	2	6	1			smuggler
expertise_sm_general_meager_fortune_1	7	3	2	1			smuggler
expertise_sm_general_meager_fortune_2	7	3	2	2			smuggler
expertise_sm_general_lined_pockets_1	7	3	3	1			smuggler
expertise_sm_general_lined_pockets_2	7	3	3	2			smuggler
expertise_sm_general_precise_bead_1	7	3	4	1			smuggler
expertise_sm_general_precise_bead_2	7	3	4	2			smuggler
expertise_sm_general_head_crack_1	7	3	5	1			smuggler
expertise_sm_general_head_crack_2	7	3	5	2			smuggler
expertise_sm_general_double_deal_1	7	3	6	1			smuggler
expertise_sm_general_double_deal_2	7	3	6	2			smuggler
expertise_sm_general_wretched_fate_1	7	4	2	1			smuggler
expertise_sm_general_wretched_fate_2	7	4	2	2			smuggler
expertise_sm_general_idiot_proof_plan_1	7	4	3	1			smuggler
expertise_sm_general_idiot_proof_plan_2	7	4	3	2			smuggler
expertise_sm_general_hammer_fanning_1	7	4	4	1			smuggler
expertise_sm_general_hammer_fanning_2	7	4	4	2			smuggler
expertise_sm_general_hammer_fanning_3	7	4	4	3			smuggler
expertise_sm_general_hammer_fanning_4	7	4	4	4			smuggler
expertise_sm_general_one_two_pummel_1	7	4	5	1			smuggler
expertise_sm_general_one_two_pummel_2	7	4	5	2			smuggler
expertise_sm_general_one_two_pummel_3	7	4	5	3			smuggler
expertise_sm_general_one_two_pummel_4	7	4	5	4			smuggler
expertise_sm_general_end_of_the_line_1	7	4	6	1			smuggler
expertise_sm_general_poor_prospect_1	7	5	2	1			smuggler
expertise_sm_general_poor_prospect_2	7	5	2	2			smuggler
expertise_sm_general_narrow_escape_1	7	5	3	1			smuggler
expertise_sm_general_break_the_deal_1	7	5	4	1			smuggler
expertise_sm_general_bad_odds_1	7	5	5	1			smuggler
expertise_sm_general_nerf_herder_1	7	5	6	1			smuggler
expertise_sm_path_blindside_1	8	1	1	1			smuggler
expertise_sm_path_blindside_2	8	1	1	2			smuggler
expertise_sm_path_skullduggery_1	8	1	2	1			smuggler
expertise_sm_path_eat_dirt_1	8	1	3	1			smuggler
expertise_sm_path_eat_dirt_2	8	1	3	2			smuggler
expertise_sm_path_easy_money_1	8	1	4	1			smuggler
expertise_sm_path_easy_money_2	8	1	4	2			smuggler
expertise_sm_path_ploy_1	8	1	5	1			smuggler
expertise_sm_path_ploy_2	8	1	5	2			smuggler
expertise_sm_path_healthy_profits_1	8	1	6	1			smuggler
expertise_sm_path_sleight_of_hand_1	8	2	1	1			smuggler
expertise_sm_path_sleight_of_hand_2	8	2	1	2			smuggler
expertise_sm_path_impossible_odds_1	8	2	2	1			smuggler
expertise_sm_path_loaded_chance_dice_1	8	2	3	1			smuggler
expertise_sm_path_loaded_chance_dice_2	8	2	3	2			smuggler
expertise_sm_path_feeling_lucky_1	8	2	4	1			smuggler
expertise_sm_path_feeling_lucky_2	8	2	4	2			smuggler
expertise_sm_path_feeling_lucky_3	8	2	4	3			smuggler
expertise_sm_path_feeling_lucky_4	8	2	4	4			smuggler
expertise_sm_path_scandal_1	8	2	5	1			smuggler
expertise_sm_path_scandal_2	8	2	5	2			smuggler
expertise_sm_path_scandal_3	8	2	5	3			smuggler
expertise_sm_path_scandal_4	8	2	5	4			smuggler
expertise_sm_path_lucky_break_1	8	3	4	1			smuggler
expertise_sm_path_lucky_break_2	8	3	4	2			smuggler
expertise_sm_path_lucky_break_3	8	3	4	3			smuggler
expertise_sm_path_lucky_break_4	8	3	4	4			smuggler
expertise_sm_path_smooth_move_1	8	3	5	1			smuggler
expertise_sm_path_smooth_move_2	8	3	5	2			smuggler
expertise_sm_path_smooth_move_3	8	3	5	3			smuggler
expertise_sm_path_smooth_move_4	8	3	5	4			smuggler
expertise_sm_path_off_the_books_1	8	3	6	1			smuggler
expertise_sm_path_inside_information_1	8	4	7	1			smuggler
expertise_sm_path_flying_tackle_1	8	4	1	1			smuggler
expertise_sm_path_flying_tackle_2	8	4	1	2			smuggler
expertise_sm_path_pistol_whip_1	8	4	2	1			smuggler
expertise_sm_path_beat_down_1	8	4	3	1			smuggler
expertise_sm_path_beat_down_2	8	4	3	2			smuggler
expertise_sm_path_card_up_your_sleeve_1	8	4	4	1			smuggler
expertise_sm_path_card_up_your_sleeve_2	8	4	4	2			smuggler
expertise_sm_path_card_up_your_sleeve_3	8	4	4	3			smuggler
expertise_sm_path_card_up_your_sleeve_4	8	4	4	4			smuggler
expertise_sm_path_false_hope_1	8	4	5	1			smuggler
expertise_sm_path_under_the_counter_1	8	4	6	1			smuggler
expertise_sm_path_under_the_counter_2	8	4	6	2			smuggler
expertise_sm_path_blaster_at_your_side_1	8	5	2	1			smuggler
expertise_sm_path_blaster_at_your_side_2	8	5	2	2			smuggler
expertise_sm_path_quick_fix_1	8	5	4	1			smuggler
expertise_sm_path_quick_fix_2	8	5	4	2			smuggler
expertise_sm_path_quick_fix_3	8	5	4	3			smuggler
expertise_sm_path_quick_fix_4	8	5	4	4			smuggler
expertise_sm_path_fake_goods_1	8	5	5	1			smuggler
expertise_sm_path_fake_goods_2	8	5	5	2			smuggler
expertise_sm_path_best_deal_ever_1	8	5	6	1			smuggler
expertise_sm_path_best_deal_ever_2	8	5	6	2			smuggler
expertise_sm_path_shoot_first_1	8	5	7	1			smuggler
expertise_of_group_buff_duration_1	11	1	1	1			officer
expertise_of_group_buff_duration_2	11	1	1	2			officer
expertise_of_advanced_tactics_1	11	2	1	1			officer
expertise_of_focus_fire_1	11	2	2	1			officer
expertise_of_drillmaster_1	11	3	1	1			officer
expertise_of_aggro_channel_1	11	3	3	1			officer
expertise_of_aggro_channel_2	11	5	3	1			officer
expertise_of_aggro_channel_3	11	5	3	2			officer
expertise_of_inspiration_1	11	4	1	1			officer
expertise_of_scatter_1	11	4	2	1			officer
expertise_of_charge_1	11	5	1	1			officer
expertise_of_last_words_1	11	5	2	1			officer
expertise_of_sup_cool_1	11	1	4	1			officer
expertise_of_sup_cool_2	11	1	4	2			officer
expertise_of_sup_cool_3	11	1	4	3			officer
expertise_of_sup_cool_4	11	1	4	4			officer
expertise_of_medical_sup_1	11	3	4	1			officer
expertise_of_tactical_sup_1	11	4	4	1			officer
expertise_of_reinforcements_1	11	5	4	1			officer
expertise_of_aoe_act_1	11	1	5	1			officer
expertise_of_aoe_act_2	11	1	5	2			officer
expertise_of_aoe_act_3	11	1	5	3			officer
expertise_of_aoe_act_4	11	1	5	4			officer
expertise_of_aoe_crit_1	11	2	5	1			officer
expertise_of_aoe_crit_2	11	2	5	2			officer
expertise_of_aoe_crit_3	11	2	5	3			officer
expertise_of_aoe_dam_1	11	3	5	1			officer
expertise_of_aoe_dam_2	11	3	5	2			officer
expertise_of_firepower_1	11	4	5	1			officer
expertise_of_firepower_cool_1	11	5	5	1			officer
expertise_of_firepower_cool_2	11	5	5	2			officer
expertise_of_firepower_cool_3	11	5	5	3			officer
expertise_of_sure_act_1	11	1	6	1			officer
expertise_of_sure_act_2	11	1	6	2			officer
expertise_of_sure_act_3	11	1	6	3			officer
expertise_of_sure_act_4	11	1	6	4			officer
expertise_of_sure_dam_1	11	2	6	1			officer
expertise_of_sure_dam_2	11	2	6	2			officer
expertise_of_sure_dam_3	11	2	6	3			officer
expertise_of_sure_dam_4	11	2	6	4			officer
expertise_of_paint_dam_1	11	4	6	1			officer
expertise_of_paint_dam_2	11	4	6	2			officer
expertise_of_advanced_paint_1	11	5	6	1			officer
expertise_of_strength_1	10	1	1	1			officer
expertise_of_strength_2	10	1	1	2			officer
expertise_of_strength_3	10	1	1	3			officer
expertise_of_strength_4	10	1	1	4			officer
expertise_of_precision_1	10	1	3	1			officer
expertise_of_precision_2	10	1	3	2			officer
expertise_of_precision_3	10	1	3	3			officer
expertise_of_precision_4	10	1	3	4			officer
expertise_of_constitution_1	10	1	5	1			officer
expertise_of_constitution_2	10	1	5	2			officer
expertise_of_constitution_3	10	1	5	3			officer
expertise_of_constitution_4	10	1	5	4			officer
expertise_of_stamina_1	10	1	7	1			officer
expertise_of_stamina_2	10	1	7	2			officer
expertise_of_stamina_3	10	1	7	3			officer
expertise_of_stamina_4	10	1	7	4			officer
expertise_of_1h_dam_1	10	2	1	1			officer
expertise_of_1h_dam_2	10	2	1	2			officer
expertise_of_1h_dam_3	10	2	1	3			officer
expertise_of_1h_dam_4	10	2	1	4			officer
expertise_of_1h_crit_1	10	3	1	1			officer
expertise_of_1h_crit_2	10	3	1	2			officer
expertise_of_decapitate_1	10	4	1	1			officer
expertise_of_vortex_1	10	5	1	1			officer
expertise_of_pistol_dam_1	10	2	3	1			officer
expertise_of_pistol_dam_2	10	2	3	2			officer
expertise_of_pistol_dam_3	10	2	3	3			officer
expertise_of_pistol_dam_4	10	2	3	4			officer
expertise_of_pistol_crit_1	10	3	3	1			officer
expertise_of_pistol_crit_2	10	3	3	2			officer
expertise_of_dm_1	10	4	3	1			officer
expertise_of_pistol_bleed	10	5	3	1			officer
expertise_of_armor_eng_1	10	2	5	1			officer
expertise_of_armor_eng_2	10	2	5	2			officer
expertise_of_stimulator_1	10	4	5	1			officer
expertise_of_heal_dam_1	10	5	5	1			officer
expertise_of_heal_dam_2	10	5	5	2			officer
expertise_of_armor_kin_1	10	2	7	1			officer
expertise_of_armor_kin_2	10	2	7	2			officer
expertise_of_purge_1	10	4	7	1			officer
expertise_of_heal_cool_1	10	5	7	1			officer
expertise_of_heal_cool_2	10	5	7	2			officer
expertise_me_hot_duration_1	17	1	1	1			medic
expertise_me_hot_duration_2	17	1	1	2			medic
expertise_me_hot_duration_3	17	1	1	3			medic
expertise_me_hot_duration_4	17	1	1	4			medic
expertise_me_drag	17	2	1	1			medic
expertise_me_revive_duration_1	17	3	1	1			medic
expertise_me_revive_duration_2	17	3	1	2			medic
expertise_me_revive_duration_3	17	3	1	3			medic
expertise_me_blood_cleaners_1	17	4	1	1			medic
expertise_me_bacta_bomb_1	17	5	1	1			medic
expertise_me_heal_damage_1	17	1	2	1			medic
expertise_me_heal_damage_2	17	1	2	2			medic
expertise_me_heal_damage_3	17	1	2	3			medic
expertise_me_heal_damage_4	17	1	2	4			medic
expertise_me_cure_affliction_1	17	2	2	1			medic
expertise_me_heal_action_1	17	3	2	1			medic
expertise_me_heal_action_2	17	3	2	2			medic
expertise_me_heal_action_3	17	3	2	3			medic
expertise_me_serotonin_boost_1	17	4	2	1			medic
expertise_me_bacta_grenade_1	17	5	2	1			medic
expertise_me_enhance_duration_1	17	2	4	1			medic
expertise_me_enhance_duration_2	17	2	4	2			medic
expertise_me_enhance_duration_3	17	2	4	3			medic
expertise_me_enhancement_specialist_1	17	3	4	1			medic
expertise_me_reckless_stimulation_1	17	4	4	1			medic
expertise_me_stasis_1	17	5	4	1			medic
expertise_me_vital_action_1	17	1	6	1			medic
expertise_me_vital_action_2	17	1	6	2			medic
expertise_me_vital_action_3	17	1	6	3			medic
expertise_me_vital_action_4	17	1	6	4			medic
expertise_me_bacta_resistance_1	17	2	6	1			medic
expertise_me_dot_damage_1	17	3	6	1			medic
expertise_me_dot_damage_2	17	3	6	2			medic
expertise_me_dot_damage_3	17	3	6	3			medic
expertise_me_serotonin_purge_1	17	4	6	1			medic
expertise_me_induce_insanity_1	17	5	6	1			medic
expertise_me_vital_damage_1	17	1	7	1			medic
expertise_me_vital_damage_2	17	1	7	2			medic
expertise_me_vital_damage_3	17	1	7	3			medic
expertise_me_vital_damage_4	17	1	7	4			medic
expertise_me_electrolyte_drain_1	17	2	7	1			medic
expertise_me_dot_duration_1	17	3	7	1			medic
expertise_me_dot_duration_2	17	3	7	2			medic
expertise_me_dot_duration_3	17	3	7	3			medic
expertise_me_traumatize_1	17	4	7	1			medic
expertise_me_thyroid_rupture_1	17	5	7	1			medic
expertise_me_strength_1	16	1	1	1			medic
expertise_me_strength_2	16	1	1	2			medic
expertise_me_strength_3	16	1	1	3			medic
expertise_me_strength_4	16	1	1	4			medic
expertise_me_enhance_strength_1	16	1	2	1			medic
expertise_me_carbine_damage_1	16	2	1	1			medic
expertise_me_carbine_damage_2	16	2	1	2			medic
expertise_me_carbine_damage_3	16	2	1	3			medic
expertise_me_carbine_damage_4	16	2	1	4			medic
expertise_me_dueterium_rounds_1	16	3	1	1			medic
expertise_me_humanoid_crits_1	16	4	1	1			medic
expertise_me_humanoid_crits_2	16	4	1	2			medic
expertise_me_humanoid_crits_3	16	4	1	3			medic
expertise_me_burst_1	16	5	1	1			medic
expertise_me_agility_1	16	1	3	1			medic
expertise_me_agility_2	16	1	3	2			medic
expertise_me_agility_3	16	1	3	3			medic
expertise_me_agility_4	16	1	3	4			medic
expertise_me_enhance_agility_1	16	1	5	1			medic
expertise_me_unarmed_damage_1	16	2	3	1			medic
expertise_me_unarmed_damage_2	16	2	3	2			medic
expertise_me_unarmed_damage_3	16	2	3	3			medic
expertise_me_unarmed_damage_4	16	2	3	4			medic
expertise_me_poison_knuckle_1	16	3	3	1			medic
expertise_me_unarmed_crit_1	16	4	3	1			medic
expertise_me_unarmed_crit_2	16	4	3	2			medic
expertise_me_unarmed_crit_3	16	4	3	3			medic
expertise_me_cranial_smash_1	16	5	3	1			medic
expertise_me_agro_healing_1	16	2	4	1			medic
expertise_me_agro_healing_2	16	2	4	2			medic
expertise_me_agro_healing_3	16	2	4	3			medic
expertise_me_evasion_1	16	4	4	1			medic
expertise_me_precision_1	16	1	6	1			medic
expertise_me_precision_2	16	1	6	2			medic
expertise_me_precision_3	16	1	6	3			medic
expertise_me_precision_4	16	1	6	4			medic
expertise_me_enhance_precision_1	16	1	7	1			medic
expertise_me_kinetic_armor_1	16	2	5	1			medic
expertise_me_kinetic_armor_2	16	2	5	2			medic
expertise_me_kinetic_armor_3	16	2	5	3			medic
expertise_me_kinetic_armor_4	16	2	5	4			medic
expertise_me_enhance_block_1	16	5	5	1			medic
expertise_me_energy_armor_1	16	2	7	1			medic
expertise_me_energy_armor_2	16	2	7	2			medic
expertise_me_energy_armor_3	16	2	7	3			medic
expertise_me_energy_armor_4	16	2	7	4			medic
expertise_me_enhance_dodge_1	16	5	7	1			medic
expertise_co_remote_detonator_1	13	1	1	1			commando
expertise_co_powered_armor_1	13	1	3	1			commando
expertise_co_powered_armor_2	13	1	3	2			commando
expertise_co_powered_armor_3	13	1	3	3			commando
expertise_co_powered_armor_4	13	1	3	4			commando
expertise_co_suppressing_fire_1	13	1	5	1			commando
expertise_co_cluster_bomb	13	1	7	1			commando
expertise_co_blow_em_away_1	13	1	6	1			commando
expertise_co_blow_em_away_2	13	1	6	2			commando
expertise_co_flashbang_1	13	2	1	1			commando
expertise_co_flashbang_2	13	2	1	2			commando
expertise_co_pinpoint_shielding_1	13	2	3	1			commando
expertise_co_pinpoint_shielding_2	13	2	3	2			commando
expertise_co_pinpoint_shielding_3	13	2	3	3			commando
expertise_co_pinpoint_shielding_4	13	2	3	4			commando
expertise_co_suppression_efficiency_1	13	2	5	1			commando
expertise_co_suppression_efficiency_2	13	2	5	2			commando
expertise_co_suppression_efficiency_3	13	2	5	3			commando
expertise_co_suppression_efficiency_4	13	2	5	4			commando
expertise_co_killing_spree	13	2	7	1			commando
expertise_co_killing_grimace_1	13	2	6	1			commando
expertise_co_killing_grimace_2	13	2	6	2			commando
expertise_co_timer_reset_1	13	3	1	1			commando
expertise_co_timer_reset_2	13	3	1	2			commando
expertise_co_deflective_armor_1	13	3	3	1			commando
expertise_co_deflective_armor_2	13	3	3	2			commando
expertise_co_deflective_armor_3	13	3	3	3			commando
expertise_co_deflective_armor_4	13	3	3	4			commando
expertise_co_riddle_armor_1	13	3	5	1			commando
expertise_co_imp_riddle_armor_1	13	3	6	1			commando
expertise_co_imp_riddle_armor_2	13	3	6	2			commando
expertise_co_youll_regret_that_1	13	3	7	1			commando
expertise_co_youll_regret_that_2	13	3	7	2			commando
expertise_co_youll_regret_that_3	13	3	7	3			commando
expertise_co_youll_regret_that_4	13	3	7	4			commando
expertise_co_angled_shrapnel_1	13	4	1	1			commando
expertise_co_angled_shrapnel_2	13	4	1	2			commando
expertise_co_blast_resistance_1	13	3	4	1			commando
expertise_co_blast_resistance_2	13	3	4	2			commando
expertise_co_blast_resistance_3	13	3	4	3			commando
expertise_co_blast_resistance_4	13	3	4	4			commando
expertise_co_armor_cracker_1	13	4	5	1			commando
expertise_co_stim_armor_1	13	4	7	1			commando
expertise_co_improved_explosives_1	13	5	1	1			commando
expertise_co_improved_explosives_2	13	5	1	2			commando
expertise_co_improved_explosives_3	13	5	1	3			commando
expertise_co_improved_explosives_4	13	5	1	4			commando
expertise_co_stand_fast_1	13	4	3	1			commando
expertise_co_imp_stand_fast_1	13	5	3	1			commando
expertise_co_imp_stand_fast_2	13	5	3	2			commando
expertise_co_imp_stand_fast_3	13	5	3	3			commando
expertise_co_mirror_armor_1	13	5	6	1			commando
expertise_co_diagnostic_armor_1	13	5	7	1			commando
expertise_co_general_enhanced_luck_1	14	1	1	1			commando
expertise_co_general_enhanced_luck_2	14	1	1	2			commando
expertise_co_enhanced_precision_1	14	1	3	1			commando
expertise_co_enhanced_precision_2	14	1	3	2			commando
expertise_co_enhanced_constitution_1	14	1	5	1			commando
expertise_co_enhanced_constitution_2	14	1	5	2			commando
expertise_co_enhanced_stamina_1	14	1	7	1			commando
expertise_co_enhanced_stamina_2	14	1	7	2			commando
expertise_co_position_secured_1	14	2	1	1			commando
expertise_co_imp_position_secured_1	14	2	2	1			commando
expertise_co_imp_position_secured_2	14	2	2	2			commando
expertise_co_imp_position_secured_3	14	2	2	3			commando
expertise_co_hose_down_1	14	2	3	1			commando
expertise_co_hose_down_2	14	2	3	2			commando
expertise_co_blast_radius_1	14	2	5	1			commando
expertise_co_blast_radius_2	14	2	5	2			commando
expertise_co_blast_radius_3	14	2	5	3			commando
expertise_co_blast_radius_4	14	2	5	4			commando
expertise_co_focus_beam_1	14	2	7	1			commando
expertise_co_burst_fire_1	14	3	1	1			commando
expertise_co_burst_fire_2	14	3	1	2			commando
expertise_co_keen_eye_1	14	3	3	1			commando
expertise_co_keen_eye_2	14	3	3	2			commando
expertise_co_strong_arm_1	14	3	5	1			commando
expertise_co_strong_arm_2	14	3	5	2			commando
expertise_co_strong_arm_3	14	3	5	3			commando
expertise_co_strong_arm_4	14	3	5	4			commando
expertise_co_tibanna_gas_1	14	3	7	1			commando
expertise_co_tibanna_gas_2	14	3	7	2			commando
expertise_co_tibanna_gas_3	14	3	7	3			commando
expertise_co_tibanna_gas_4	14	3	7	4			commando
expertise_co_on_target_1	14	4	1	1			commando
expertise_co_on_target_2	14	4	1	2			commando
expertise_co_on_target_3	14	4	1	3			commando
expertise_co_on_target_4	14	4	1	4			commando
expertise_co_heavy_ammunition_1	14	4	3	1			commando
expertise_co_heavy_ammunition_2	14	4	3	2			commando
expertise_co_heavy_ammunition_3	14	4	3	3			commando
expertise_co_heavy_ammunition_4	14	4	3	4			commando
expertise_co_packed_explosives_1	14	4	5	1			commando
expertise_co_packed_explosives_2	14	4	5	2			commando
expertise_co_packed_explosives_3	14	4	5	3			commando
expertise_co_packed_explosives_4	14	4	5	4			commando
expertise_co_lethal_beam_1	14	4	7	1			commando
expertise_co_base_of_operations_1	14	5	1	1			commando
expertise_co_marksman_1	14	5	3	1			commando
expertise_co_marksman_2	14	5	3	2			commando
expertise_co_marksman_3	14	5	3	3			commando
expertise_co_short_fuse_1	14	5	5	1			commando
expertise_co_enhanced_fuel_cans_1	14	5	7	1			commando
expertise_co_enhanced_fuel_cans_2	14	5	7	2			commando
expertise_co_enhanced_fuel_cans_3	14	5	7	3			commando
expertise_co_enhanced_fuel_cans_4	14	5	7	4			commando
expertise_sp_precision_1	19	1	2	1			spy
expertise_sp_precision_2	19	1	2	2			spy
expertise_sp_increased_strength_1	19	1	3	1			spy
expertise_sp_increased_strength_2	19	1	3	2			spy
expertise_sp_increased_agility_1	19	1	5	1			spy
expertise_sp_increased_agility_2	19	1	5	2			spy
expertise_sp_cloaking_armor_1	19	1	6	1			spy
expertise_sp_cloaking_armor_2	19	1	6	2			spy
expertise_sp_hidden_daggers_1	19	2	1	1			spy
expertise_sp_hidden_daggers_2	99	1	2	1			spy
expertise_sp_cheap_strikes_1	19	2	3	1			spy
expertise_sp_cheap_strikes_2	19	2	3	2			spy
expertise_sp_cheap_strikes_3	19	2	3	3			spy
expertise_sp_cheap_strikes_4	19	2	3	4			spy
expertise_sp_cheap_shots_1	19	2	5	1			spy
expertise_sp_cheap_shots_2	19	2	5	2			spy
expertise_sp_cheap_shots_3	19	2	5	3			spy
expertise_sp_cheap_shots_4	19	2	5	4			spy
expertise_sp_protective_armor_1	19	2	7	1			spy
expertise_sp_protective_armor_2	19	2	7	2			spy
expertise_sp_protective_armor_3	19	2	7	3			spy
expertise_sp_protective_armor_4	19	2	7	4			spy
expertise_sp_improved_spys_fang_1	19	3	1	1			spy
expertise_sp_opportunity_1	19	3	4	1			spy
expertise_sp_opportunity_2	19	3	4	2			spy
expertise_sp_opportunity_3	19	3	4	3			spy
expertise_sp_opportunity_4	19	3	4	4			spy
expertise_sp_glancing_armor_1	19	3	7	1			spy
expertise_sp_glancing_armor_2	19	3	7	2			spy
expertise_sp_equilibrium	19	4	1	1			spy
expertise_sp_close_quarters_1	19	4	3	1			spy
expertise_sp_close_quarters_2	19	4	3	2			spy
expertise_sp_close_quarters_3	19	4	3	3			spy
expertise_sp_deadly_pistols_1	19	4	5	1			spy
expertise_sp_deadly_pistols_2	19	4	5	2			spy
expertise_sp_deadly_pistols_3	19	4	5	3			spy
expertise_sp_avoid_damage_1	19	4	7	1			spy
expertise_sp_assassins_mark	19	5	3	1			spy
expertise_sp_jagged_edge_1	19	5	4	1			spy
expertise_sp_jagged_edge_2	19	5	4	2			spy
expertise_sp_jagged_edge_3	19	5	4	3			spy
expertise_sp_savagery	19	5	5	1			spy
expertise_sp_preparation_1	19	5	7	1			spy
expertise_sp_quiet_steps_1	20	1	1	1			spy
expertise_sp_quiet_steps_2	20	1	1	2			spy
expertise_sp_run_its_course_1	20	1	3	1			spy
expertise_sp_improved_first_aid_1	20	1	4	1			spy
expertise_sp_improved_first_aid_2	20	1	4	2			spy
expertise_sp_cloaked_recovery_1	20	1	5	1			spy
expertise_sp_diversion_1	20	1	7	1			spy
expertise_sp_diversion_2	20	1	7	2			spy
expertise_sp_reveal_shadows_1	20	2	1	1			spy
expertise_sp_rapid_concealment_1	20	2	3	1			spy
expertise_sp_rapid_concealment_2	20	2	3	2			spy
expertise_sp_rapid_concealment_3	20	2	3	3			spy
expertise_sp_rapid_concealment_4	20	2	3	4			spy
expertise_sp_assassins_blade_1	20	2	4	1			spy
expertise_sp_assassins_blade_2	20	2	4	2			spy
expertise_sp_assassins_blade_3	99	2	4	1			spy
expertise_sp_assassins_blade_4	99	2	4	2			spy
expertise_sp_puncturing_strikes_1	20	2	5	1			spy
expertise_sp_puncturing_strikes_2	20	2	5	2			spy
expertise_sp_puncturing_strikes_3	20	2	5	3			spy
expertise_sp_puncturing_strikes_4	20	2	5	4			spy
expertise_sp_cloaked_attacks_1	20	2	7	1			spy
expertise_sp_careful_observation_1	20	3	1	1			spy
expertise_sp_careful_observation_2	20	3	1	2			spy
expertise_sp_smoke_mirrors	20	3	3	1			spy
expertise_sp_vibrogenerator_1	20	3	4	1			spy
expertise_sp_vibrogenerator_2	20	3	4	2			spy
expertise_sp_vibrogenerator_3	20	3	4	3			spy
expertise_sp_crippling_traps_1	20	3	5	1			spy
expertise_sp_crippling_traps_2	20	3	5	2			spy
expertise_sp_cloak_and_dagger_1	20	3	7	1			spy
expertise_sp_cloak_and_dagger_2	20	3	7	2			spy
expertise_sp_cloak_and_dagger_3	20	3	7	3			spy
expertise_sp_cloak_and_dagger_4	20	3	7	4			spy
expertise_sp_expose_shadows_1	20	4	1	1			spy
expertise_sp_expose_shadows_2	20	4	1	2			spy
expertise_sp_expose_shadows_3	20	4	1	3			spy
expertise_sp_expose_shadows_4	20	4	1	4			spy
expertise_sp_resonance	20	4	4	1			spy
expertise_sp_burst_of_shadows_1	20	4	5	1			spy
expertise_sp_initiative_1	20	4	7	1			spy
expertise_sp_initiative_2	20	4	7	2			spy
expertise_sp_initiative_3	20	4	7	3			spy
expertise_sp_initiative_4	20	4	7	4			spy
expertise_sp_without_a_trace_1	20	5	3	1			spy
expertise_sp_covert_mastery_1	20	5	5	1			spy
expertise_sp_shifty_setup_1	20	5	7	1			spy
expertise_sp_smoke_screen_1	99	2	2	1			spy
expertise_sp_smoke_screen_2	99	2	2	2			spy
expertise_sp_smoke_screen_3	99	2	2	3			spy
expertise_sp_smoke_screen_4	99	2	2	4			spy
expertise_sp_decoy_1	99	2	4	1			spy
expertise_sp_noxious_traps_1	99	2	5	1			spy
expertise_sp_noxious_traps_2	99	2	5	2			spy
expertise_sp_steup_1	99	3	6	1			spy
expertise_sp_steup_2	99	3	6	2			spy
expertise_sp_steup_3	99	3	6	3			spy
expertise_sp_steup_4	99	3	6	4			spy
expertise_sp_shadows_embrace_1	99	4	2	1			spy
expertise_sp_shadows_embrace_2	99	4	2	2			spy
expertise_sp_shadows_embrace_3	99	4	2	3			spy
expertise_sp_shadows_embrace_4	99	4	2	4			spy
expertise_sp_undercover_1	99	4	3	1			spy
expertise_sp_undercover_2	99	4	3	2			spy
expertise_sp_undercover_3	99	4	3	3			spy
expertise_sp_deadly_toxins_1	99	4	5	1			spy
expertise_sp_deadly_toxins_2	99	4	5	2			spy
expertise_sp_improved_arachnids_web_1	99	5	3	1			spy
expertise_en_inspired_fitness_1	23	1	2	1			entertainer
expertise_en_inspired_fitness_2	23	1	2	2			entertainer
expertise_en_inspired_fitness_3	23	1	2	3			entertainer
expertise_en_inspired_fitness_4	23	1	2	4			entertainer
expertise_en_inspired_resilience_1	23	1	4	1			entertainer
expertise_en_inspired_resilience_2	23	1	4	2			entertainer
expertise_en_inspired_resilience_3	23	1	4	3			entertainer
expertise_en_inspired_resilience_4	23	1	4	4			entertainer
expertise_en_inspired_industry_1	23	1	6	1			entertainer
expertise_en_inspired_industry_2	23	1	6	2			entertainer
expertise_en_inspired_industry_3	23	1	6	3			entertainer
expertise_en_inspired_industry_4	23	1	6	4			entertainer
expertise_en_creativity_1	23	2	1	1			entertainer
expertise_en_creativity_2	23	2	1	2			entertainer
expertise_en_creativity_3	23	2	1	3			entertainer
expertise_en_creativity_4	23	2	1	4			entertainer
expertise_en_holism_1	23	2	3	1			entertainer
expertise_en_harvest_faire_1	23	2	4	1			entertainer
expertise_en_second_chance_1	23	2	6	1			entertainer
expertise_en_go_with_the_flow_1	23	2	7	1			entertainer
expertise_en_intense_performer_1	23	3	1	1			entertainer
expertise_en_intense_performer_2	23	3	1	2			entertainer
expertise_en_intense_performer_3	23	3	1	3			entertainer
expertise_en_intense_performer_4	23	3	1	4			entertainer
expertise_en_affability_1	23	3	2	1			entertainer
expertise_en_affability_2	23	3	2	2			entertainer
expertise_en_affability_3	23	3	2	3			entertainer
expertise_en_affability_4	23	3	2	4			entertainer
expertise_en_flush_with_success_1	23	3	5	1			entertainer
expertise_en_inspired_reactions_1	23	3	7	1			entertainer
expertise_en_inspired_reactions_2	23	3	7	2			entertainer
expertise_en_inspired_reactions_3	23	3	7	3			entertainer
expertise_en_inspired_reactions_4	23	3	7	4			entertainer
expertise_en_lasting_impression_1	23	4	1	1			entertainer
expertise_en_lasting_impression_2	23	4	1	2			entertainer
expertise_en_lasting_impression_3	23	4	1	3			entertainer
expertise_en_lasting_impression_4	23	4	1	4			entertainer
expertise_en_holography_1	23	4	4	1			entertainer
expertise_en_inspired_warfare_1	23	4	7	1			entertainer
expertise_en_inspired_warfare_2	23	4	7	2			entertainer
expertise_en_inspired_warfare_3	23	4	7	3			entertainer
expertise_en_inspired_warfare_4	23	4	7	4			entertainer
expertise_en_improv_1	23	5	2	1			entertainer
expertise_en_holographic_mastery_1	23	5	4	1			entertainer
expertise_en_holographic_mastery_2	23	5	4	2			entertainer
expertise_en_dramatic_flair_1	22	1	4	1			entertainer
expertise_en_dramatic_flair_2	22	1	4	2			entertainer
expertise_en_dramatic_flair_3	22	1	4	3			entertainer
expertise_en_dramatic_flair_4	22	1	4	4			entertainer
expertise_en_strike_1	22	2	1	1			entertainer
expertise_en_conditioned_vessel_1	22	2	2	1			entertainer
expertise_en_conditioned_vessel_2	22	2	2	2			entertainer
expertise_en_conditioned_vessel_3	22	2	2	3			entertainer
expertise_en_conditioned_vessel_4	22	2	2	4			entertainer
expertise_en_thought_as_action_1	22	2	3	1			entertainer
expertise_en_thought_as_action_2	22	2	3	2			entertainer
expertise_en_thought_as_action_3	22	2	3	3			entertainer
expertise_en_thought_as_action_4	22	2	3	4			entertainer
expertise_en_folded_inward_1	22	2	5	1			entertainer
expertise_en_folded_inward_2	22	2	5	2			entertainer
expertise_en_folded_inward_3	22	2	5	3			entertainer
expertise_en_folded_inward_4	22	2	5	4			entertainer
expertise_en_thrill_1	22	2	6	1			entertainer
expertise_en_project_will_1	22	3	1	1			entertainer
expertise_en_rising_spirit_1	22	3	2	1			entertainer
expertise_en_rising_spirit_2	22	3	2	2			entertainer
expertise_en_rising_spirit_3	22	3	2	3			entertainer
expertise_en_rising_spirit_4	22	3	2	4			entertainer
expertise_en_emotional_prescience_1	22	3	4	1			entertainer
expertise_en_emotional_prescience_2	22	3	4	2			entertainer
expertise_en_emotional_prescience_3	22	3	4	3			entertainer
expertise_en_emotional_prescience_4	22	3	4	4			entertainer
expertise_en_to_the_hilt_1	22	3	6	1			entertainer
expertise_en_to_the_hilt_2	22	3	6	2			entertainer
expertise_en_sweeping_pirouette_1	22	4	1	1			entertainer
expertise_en_controlled_spin_1	22	4	2	1			entertainer
expertise_en_controlled_spin_2	22	4	2	2			entertainer
expertise_en_controlled_spin_3	22	4	2	3			entertainer
expertise_en_void_dance_1	22	4	4	1			entertainer
expertise_en_unhealthy_fixation_1	22	4	6	1			entertainer
expertise_en_allure_1	22	4	7	1			entertainer
expertise_en_allure_2	22	4	7	2			entertainer
expertise_en_allure_3	22	4	7	3			entertainer
expertise_en_allure_4	22	4	7	4			entertainer
expertise_en_spiral_kick_1	22	5	1	1			entertainer
expertise_en_uprising_1	22	5	2	1			entertainer
expertise_en_uprising_2	22	5	2	2			entertainer
expertise_en_annulling_1	22	5	4	1			entertainer
expertise_en_annulling_2	22	5	4	2			entertainer
expertise_en_annulling_3	22	5	4	3			entertainer
expertise_trader_business_accounting_1	29	1	1	1			trader
expertise_trader_business_accounting_2	29	1	1	2			trader
expertise_trader_business_accounting_3	29	1	1	3			trader
expertise_trader_business_accounting_4	29	1	1	4			trader
expertise_trader_sampling_collection_1	29	1	7	1			trader
expertise_trader_sampling_collection_2	29	1	7	2			trader
expertise_trader_sampling_collection_3	29	1	7	3			trader
expertise_trader_sampling_collection_4	29	1	7	4			trader
expertise_trader_warehousing_1	29	2	1	1			trader
expertise_trader_warehousing_2	29	2	1	2			trader
expertise_trader_warehousing_3	29	2	1	3			trader
expertise_trader_warehousing_4	29	2	1	4			trader
expertise_trader_harvester_storage_1	29	2	5	1			trader
expertise_trader_harvester_storage_2	29	2	5	2			trader
expertise_trader_harvester_storage_3	29	2	5	3			trader
expertise_trader_harvester_storage_4	29	2	5	4			trader
expertise_trader_sampling_efficiency_1	29	2	7	1			trader
expertise_trader_sampling_efficiency_2	29	2	7	2			trader
expertise_trader_sampling_efficiency_3	29	2	7	3			trader
expertise_trader_personnel_management_1	29	3	1	1			trader
expertise_trader_personnel_management_2	29	3	1	2			trader
expertise_trader_factory_maintenance_1	29	3	3	1			trader
expertise_trader_factory_maintenance_2	29	3	3	2			trader
expertise_trader_factory_maintenance_3	29	3	3	3			trader
expertise_trader_factory_maintenance_4	29	3	3	4			trader
expertise_trader_harvester_maintenance_1	29	3	5	1			trader
expertise_trader_harvester_maintenance_2	29	3	5	2			trader
expertise_trader_harvester_maintenance_3	29	3	5	3			trader
expertise_trader_harvester_maintenance_4	29	3	5	4			trader
expertise_trader_factory_energy_1	29	4	3	1			trader
expertise_trader_factory_energy_2	29	4	3	2			trader
expertise_trader_factory_energy_3	29	4	3	3			trader
expertise_trader_factory_energy_4	29	4	3	4			trader
expertise_trader_harvester_energy_1	29	4	5	1			trader
expertise_trader_harvester_energy_2	29	4	5	2			trader
expertise_trader_harvester_energy_3	29	4	5	3			trader
expertise_trader_harvester_energy_4	29	4	5	4			trader
expertise_trader_reverse_engineering_1	29	4	7	1			trader
expertise_trader_reverse_engineering_2	29	4	7	2			trader
expertise_trader_factory_production_1	29	5	3	1			trader
expertise_trader_factory_production_2	29	5	3	2			trader
expertise_trader_harvester_collection_1	29	5	5	1			trader
expertise_trader_harvester_collection_2	29	5	5	2			trader
expertise_domestic_tailor_dexterity_1	25	1	1	1			trader_dom
expertise_domestic_tailor_dexterity_2	25	1	1	2			trader_dom
expertise_domestic_tailor_dexterity_3	25	1	1	3			trader_dom
expertise_domestic_tailor_dexterity_4	25	1	1	4			trader_dom
expertise_domestic_artisan_dexterity_1	25	1	4	1			trader_dom
expertise_domestic_artisan_dexterity_2	25	1	4	2			trader_dom
expertise_domestic_artisan_dexterity_3	25	1	4	3			trader_dom
expertise_domestic_artisan_dexterity_4	25	1	4	4			trader_dom
expertise_domestic_chef_dexterity_1	25	1	7	1			trader_dom
expertise_domestic_chef_dexterity_2	25	1	7	2			trader_dom
expertise_domestic_chef_dexterity_3	25	1	7	3			trader_dom
expertise_domestic_chef_dexterity_4	25	1	7	4			trader_dom
expertise_domestic_tailor_insight_1	25	2	2	1			trader_dom
expertise_domestic_tailor_insight_2	25	2	2	2			trader_dom
expertise_domestic_artisan_hypothesis_1	25	2	4	1			trader_dom
expertise_domestic_artisan_hypothesis_2	25	2	4	2			trader_dom
expertise_domestic_artisan_hypothesis_3	25	2	4	3			trader_dom
expertise_domestic_artisan_hypothesis_4	25	2	4	4			trader_dom
expertise_domestic_chef_insight_1	25	2	6	1			trader_dom
expertise_domestic_chef_insight_2	25	2	6	2			trader_dom
expertise_domestic_tailor_hypothesis_1	25	3	1	1			trader_dom
expertise_domestic_tailor_hypothesis_2	25	3	1	2			trader_dom
expertise_domestic_tailor_hypothesis_3	25	3	1	3			trader_dom
expertise_domestic_tailor_hypothesis_4	25	3	1	4			trader_dom
expertise_domestic_resource_processing_1	25	3	3	1			trader_dom
expertise_domestic_resource_processing_2	25	3	3	2			trader_dom
expertise_domestic_chef_hypothesis_1	25	3	7	1			trader_dom
expertise_domestic_chef_hypothesis_2	25	3	7	2			trader_dom
expertise_domestic_chef_hypothesis_3	25	3	7	3			trader_dom
expertise_domestic_chef_hypothesis_4	25	3	7	4			trader_dom
expertise_domestic_tailor_keen_understanding_1	25	4	2	1			trader_dom
expertise_domestic_tailor_keen_understanding_2	25	4	2	2			trader_dom
expertise_domestic_resource_refinement_1	25	4	3	1			trader_dom
expertise_domestic_resource_refinement_2	25	4	3	2			trader_dom
expertise_domestic_artisan_advanced_theory_1	25	4	4	1			trader_dom
expertise_domestic_chef_keen_understanding_1	25	4	6	1			trader_dom
expertise_domestic_chef_keen_understanding_2	25	4	6	2			trader_dom
expertise_domestic_tailor_advanced_theory_1	25	5	1	1			trader_dom
expertise_domestic_tailor_socket_bonus_1	25	5	2	1			trader_dom
expertise_domestic_tailor_attachment_upgrade_1	25	5	3	1			trader_dom
expertise_domestic_chef_schematic_1_1	25	5	5	1			trader_dom
expertise_domestic_chef_schematic_2_1	25	5	6	1			trader_dom
expertise_domestic_chef_advanced_theory_1	25	5	7	1			trader_dom
expertise_structure_architect_dexterity_1	26	1	1	1			trader_struct
expertise_structure_architect_dexterity_2	26	1	1	2			trader_struct
expertise_structure_architect_dexterity_3	26	1	1	3			trader_struct
expertise_structure_architect_dexterity_4	26	1	1	4			trader_struct
expertise_structure_artisan_dexterity_1	26	1	4	1			trader_struct
expertise_structure_artisan_dexterity_2	26	1	4	2			trader_struct
expertise_structure_artisan_dexterity_3	26	1	4	3			trader_struct
expertise_structure_artisan_dexterity_4	26	1	4	4			trader_struct
expertise_structure_shipwright_dexterity_1	26	1	7	1			trader_struct
expertise_structure_shipwright_dexterity_2	26	1	7	2			trader_struct
expertise_structure_shipwright_dexterity_3	26	1	7	3			trader_struct
expertise_structure_shipwright_dexterity_4	26	1	7	4			trader_struct
expertise_structure_architect_insight_1	26	2	2	1			trader_struct
expertise_structure_architect_insight_2	26	2	2	2			trader_struct
expertise_structure_artisan_hypothesis_1	26	2	4	1			trader_struct
expertise_structure_artisan_hypothesis_2	26	2	4	2			trader_struct
expertise_structure_artisan_hypothesis_3	26	2	4	3			trader_struct
expertise_structure_artisan_hypothesis_4	26	2	4	4			trader_struct
expertise_structure_shipwright_insight_1	26	2	6	1			trader_struct
expertise_structure_shipwright_insight_2	26	2	6	2			trader_struct
expertise_structure_architect_hypothesis_1	26	3	1	1			trader_struct
expertise_structure_architect_hypothesis_2	26	3	1	2			trader_struct
expertise_structure_architect_hypothesis_3	26	3	1	3			trader_struct
expertise_structure_architect_hypothesis_4	26	3	1	4			trader_struct
expertise_structure_resource_processing_1	26	3	3	1			trader_struct
expertise_structure_resource_processing_2	26	3	3	2			trader_struct
expertise_structure_shipwright_hypothesis_1	26	3	7	1			trader_struct
expertise_structure_shipwright_hypothesis_2	26	3	7	2			trader_struct
expertise_structure_shipwright_hypothesis_3	26	3	7	3			trader_struct
expertise_structure_shipwright_hypothesis_4	26	3	7	4			trader_struct
expertise_structure_architect_keen_understanding_1	26	4	2	1			trader_struct
expertise_structure_architect_keen_understanding_2	26	4	2	2			trader_struct
expertise_structure_resource_refinement_1	26	4	3	1			trader_struct
expertise_structure_resource_refinement_2	26	4	3	2			trader_struct
expertise_structure_artisan_advanced_theory_1	26	4	4	1			trader_struct
expertise_structure_shipwright_keen_understanding_1	26	4	6	1			trader_struct
expertise_structure_shipwright_keen_understanding_2	26	4	6	2			trader_struct
expertise_structure_architect_advanced_theory_1	26	5	1	1			trader_struct
expertise_structure_architect_schematic_1_1	26	5	2	1			trader_struct
expertise_structure_architect_schematic_2_1	26	5	3	1			trader_struct
expertise_structure_shipwright_schematic_1_1	26	5	5	1			trader_struct
expertise_structure_shipwright_schematic_2_1	26	5	6	1			trader_struct
expertise_structure_shipwright_advanced_theory_1	26	5	7	1			trader_struct
expertise_munition_weaponsmith_dexterity_1	27	1	1	1			trader_mun
expertise_munition_weaponsmith_dexterity_2	27	1	1	2			trader_mun
expertise_munition_weaponsmith_dexterity_3	27	1	1	3			trader_mun
expertise_munition_weaponsmith_dexterity_4	27	1	1	4			trader_mun
expertise_munition_artisan_dexterity_1	27	1	4	1			trader_mun
expertise_munition_artisan_dexterity_2	27	1	4	2			trader_mun
expertise_munition_artisan_dexterity_3	27	1	4	3			trader_mun
expertise_munition_artisan_dexterity_4	27	1	4	4			trader_mun
expertise_munition_armorsmith_dexterity_1	27	1	7	1			trader_mun
expertise_munition_armorsmith_dexterity_2	27	1	7	2			trader_mun
expertise_munition_armorsmith_dexterity_3	27	1	7	3			trader_mun
expertise_munition_armorsmith_dexterity_4	27	1	7	4			trader_mun
expertise_munition_weaponsmith_insight_1	27	2	2	1			trader_mun
expertise_munition_weaponsmith_insight_2	27	2	2	2			trader_mun
expertise_munition_artisan_hypothesis_1	27	2	4	1			trader_mun
expertise_munition_artisan_hypothesis_2	27	2	4	2			trader_mun
expertise_munition_artisan_hypothesis_3	27	2	4	3			trader_mun
expertise_munition_artisan_hypothesis_4	27	2	4	4			trader_mun
expertise_munition_armorsmith_insight_1	27	2	6	1			trader_mun
expertise_munition_armorsmith_insight_2	27	2	6	2			trader_mun
expertise_munition_weaponsmith_hypothesis_1	27	3	1	1			trader_mun
expertise_munition_weaponsmith_hypothesis_2	27	3	1	2			trader_mun
expertise_munition_weaponsmith_hypothesis_3	27	3	1	3			trader_mun
expertise_munition_weaponsmith_hypothesis_4	27	3	1	4			trader_mun
expertise_munition_resource_processing_1	27	3	3	1			trader_mun
expertise_munition_resource_processing_2	27	3	3	2			trader_mun
expertise_munition_armorsmith_hypothesis_1	27	3	7	1			trader_mun
expertise_munition_armorsmith_hypothesis_2	27	3	7	2			trader_mun
expertise_munition_armorsmith_hypothesis_3	27	3	7	3			trader_mun
expertise_munition_armorsmith_hypothesis_4	27	3	7	4			trader_mun
expertise_munition_weaponsmith_keen_understanding_1	27	4	2	1			trader_mun
expertise_munition_weaponsmith_keen_understanding_2	27	4	2	2			trader_mun
expertise_munition_resource_refinement_1	27	4	3	1			trader_mun
expertise_munition_resource_refinement_2	27	4	3	2			trader_mun
expertise_munition_artisan_advanced_theory_1	27	4	4	1			trader_mun
expertise_munition_armorsmith_keen_understanding_1	27	4	6	1			trader_mun
expertise_munition_armorsmith_keen_understanding_2	27	4	6	2			trader_mun
expertise_munition_weaponsmith_advanced_theory_1	27	5	1	1			trader_mun
expertise_munition_armorsmith_attachment_upgrade_1	27	5	5	1			trader_mun
expertise_munition_armorsmith_socket_bonus_1	27	5	6	1			trader_mun
expertise_munition_armorsmith_advanced_theory_1	27	5	7	1			trader_mun
expertise_engineering_droid_dexterity_1	28	1	1	1			trader_eng
expertise_engineering_droid_dexterity_2	28	1	1	2			trader_eng
expertise_engineering_droid_dexterity_3	28	1	1	3			trader_eng
expertise_engineering_droid_dexterity_4	28	1	1	4			trader_eng
expertise_engineering_artisan_dexterity_1	28	1	4	1			trader_eng
expertise_engineering_artisan_dexterity_2	28	1	4	2			trader_eng
expertise_engineering_artisan_dexterity_3	28	1	4	3			trader_eng
expertise_engineering_artisan_dexterity_4	28	1	4	4			trader_eng
expertise_cybernetic_dexterity_1	28	1	7	1			trader_eng
expertise_cybernetic_dexterity_2	28	1	7	2			trader_eng
expertise_cybernetic_dexterity_3	28	1	7	3			trader_eng
expertise_cybernetic_dexterity_4	28	1	7	4			trader_eng
expertise_engineering_droid_insight_1	28	2	2	1			trader_eng
expertise_engineering_droid_insight_2	28	2	2	2			trader_eng
expertise_engineering_artisan_hypothesis_1	28	2	4	1			trader_eng
expertise_engineering_artisan_hypothesis_2	28	2	4	2			trader_eng
expertise_engineering_artisan_hypothesis_3	28	2	4	3			trader_eng
expertise_engineering_artisan_hypothesis_4	28	2	4	4			trader_eng
expertise_engineering_cybernetic_s03_schematics_1	28	2	6	1			trader_eng
expertise_engineering_droid_hypothesis_1	28	3	1	1			trader_eng
expertise_engineering_droid_hypothesis_2	28	3	1	2			trader_eng
expertise_engineering_droid_hypothesis_3	28	3	1	3			trader_eng
expertise_engineering_droid_hypothesis_4	28	3	1	4			trader_eng
expertise_engineering_resource_processing_1	28	3	3	1			trader_eng
expertise_engineering_resource_processing_2	28	3	3	2			trader_eng
expertise_engineering_cybernetic_hypothesis_1	28	3	7	1			trader_eng
expertise_engineering_cybernetic_hypothesis_2	28	3	7	2			trader_eng
expertise_engineering_cybernetic_hypothesis_3	28	3	7	3			trader_eng
expertise_engineering_cybernetic_hypothesis_4	28	3	7	4			trader_eng
expertise_engineering_droid_keen_understanding_1	28	4	2	1			trader_eng
expertise_engineering_droid_keen_understanding_2	28	4	2	2			trader_eng
expertise_engineering_resource_refinement_1	28	4	3	1			trader_eng
expertise_engineering_resource_refinement_2	28	4	3	2			trader_eng
expertise_engineering_artisan_advanced_theory_1	28	4	4	1			trader_eng
expertise_engineering_cybernetic_negative_effects_reduction_1	28	4	6	1			trader_eng
expertise_engineering_cybernetic_negative_effects_reduction_2	28	4	6	2			trader_eng
expertise_engineering_cybernetic_negative_effects_reduction_3	28	4	6	3			trader_eng
expertise_engineering_cybernetic_negative_effects_reduction_4	28	4	6	4			trader_eng
expertise_engineering_droid_advanced_theory_1	28	5	1	1			trader_eng
expertise_engineering_droid_schematic_1_1	28	5	2	1			trader_eng
expertise_engineering_droid_schematic_2_1	28	5	3	1			trader_eng
expertise_engineering_weaponsmith_attachment_upgrade_1	28	5	4	1			trader_eng
expertise_engineering_weaponsmith_socket_bonus_1	28	5	5	1			trader_eng
expertise_engineering_cybernetic_advanced_theory_1	28	5	7	1			trader_eng
expertise_bm_incubation_base_1	30	1	4	1			all
expertise_bm_incubation_mod_1	30	2	5	1			all
expertise_bm_incubation_mod_2	30	2	5	2			all
expertise_bm_incubation_mod_3	30	2	5	3			all
expertise_bm_abilility_aquisition_mod_1	30	1	1	1			all
expertise_bm_abilility_aquisition_mod_2	30	1	1	2			all
expertise_bm_abilility_aquisition_mod_3	30	1	1	3			all
expertise_bm_abilility_aquisition_mod_4	30	1	1	4			all
expertise_bm_pet_tricks_1	30	1	6	1			all
expertise_bm_loyalty_mod_1	30	1	5	1			all
expertise_bm_loyalty_mod_2	30	1	5	2			all
expertise_bm_loyalty_mod_3	30	1	5	3			all
expertise_bm_train_mount_1	30	1	7	1			all
expertise_bm_add_first_pet_bar_1	30	2	4	1			all
expertise_bm_attack_1	30	1	3	1			all
expertise_bm_metagame_mod_1	30	2	7	1			all
expertise_bm_metagame_mod_2	30	2	7	2			all
expertise_bm_metagame_mod_3	30	2	7	3			all
expertise_bm_add_second_pet_bar_1	30	3	3	1			all
expertise_bm_swift_recovery_1	30	2	2	1			all
expertise_bm_mending_1	30	2	3	1			all
expertise_bm_soothing_comfort_1	30	2	1	1			all
expertise_bm_specialized_supplements_1	30	4	2	1			all
expertise_bm_pet_recovery_1	30	3	2	1			all
expertise_bm_add_third_pet_bar_1	30	4	3	1			all
expertise_bm_exceptional_nutrition_1	30	3	1	1			all
expertise_bm_exceptional_nutrition_2	30	3	1	2			all
expertise_bm_dexterity_training_1	30	4	1	1			all
expertise_bm_dexterity_training_2	30	4	1	2			all
expertise_bm_fortitude_1	30	5	1	1			all
expertise_bm_fortitude_2	30	5	1	2			all
expertise_bm_fortitude_3	30	5	1	3			all
expertise_bm_savagery_1	30	5	2	1			all
expertise_bm_savagery_2	30	5	2	2			all
expertise_bm_savagery_3	30	5	2	3			all
expertise_bm_beast_mastery_1	30	5	3	1			all
expertise_bm_beast_mastery_2	30	5	3	2			all
expertise_bm_beast_mastery_3	30	5	3	3			all
expertise_bm_creature_knowledge_command_1	30	1	2	1			all
expertise_bm_genetic_engineering_1	30	3	5	1			all
expertise_bm_genetic_engineering_2	30	3	5	2			all
expertise_bm_genetic_engineering_3	30	3	5	3			all
expertise_bm_dna_harvesting_1	30	3	6	1			all
expertise_bm_dna_harvesting_2	30	3	6	2			all
expertise_bm_dna_harvesting_3	30	3	6	3			all
